%!PS-Adobe-3.0
%Produced by poppler pdftops version: 0.26.5 (http://poppler.freedesktop.org)
%%Creator: 
%%LanguageLevel: 2
%%DocumentSuppliedResources: (atend)
%%DocumentMedia: 78x61mm 223 173 0 () ()
%%BoundingBox: 0 0 223 173
%%Pages: 1
%%EndComments
%%BeginProlog
%%BeginResource: procset xpdf 3.00 0
%%Copyright: Copyright 1996-2011 Glyph & Cog, LLC
/xpdf 75 dict def xpdf begin
% PDF special state
/pdfDictSize 15 def
/pdfSetup {
  /setpagedevice where {
    pop 2 dict begin
      /Policies 1 dict dup begin /PageSize 6 def end def
      { /Duplex true def } if
    currentdict end setpagedevice
  } {
    pop
  } ifelse
} def
/pdfSetupPaper {
  % Change paper size, but only if different from previous paper size otherwise
  % duplex fails. PLRM specifies a tolerance of 5 pts when matching paper size
  % so we use the same when checking if the size changes.
  /setpagedevice where {
    pop currentpagedevice
    /PageSize known {
      2 copy
      currentpagedevice /PageSize get aload pop
      exch 4 1 roll
      sub abs 5 gt
      3 1 roll
      sub abs 5 gt
      or
    } {
      true
    } ifelse
    {
      2 array astore
      2 dict begin
        /PageSize exch def
        /ImagingBBox null def
      currentdict end
      setpagedevice
    } {
      pop pop
    } ifelse
  } {
    pop
  } ifelse
} def
/pdfStartPage {
  pdfDictSize dict begin
  /pdfFillCS [] def
  /pdfFillXform {} def
  /pdfStrokeCS [] def
  /pdfStrokeXform {} def
  /pdfFill [0] def
  /pdfStroke [0] def
  /pdfFillOP false def
  /pdfStrokeOP false def
  /pdfLastFill false def
  /pdfLastStroke false def
  /pdfTextMat [1 0 0 1 0 0] def
  /pdfFontSize 0 def
  /pdfCharSpacing 0 def
  /pdfTextRender 0 def
  /pdfPatternCS false def
  /pdfTextRise 0 def
  /pdfWordSpacing 0 def
  /pdfHorizScaling 1 def
  /pdfTextClipPath [] def
} def
/pdfEndPage { end } def
% PDF color state
/cs { /pdfFillXform exch def dup /pdfFillCS exch def
      setcolorspace } def
/CS { /pdfStrokeXform exch def dup /pdfStrokeCS exch def
      setcolorspace } def
/sc { pdfLastFill not { pdfFillCS setcolorspace } if
      dup /pdfFill exch def aload pop pdfFillXform setcolor
     /pdfLastFill true def /pdfLastStroke false def } def
/SC { pdfLastStroke not { pdfStrokeCS setcolorspace } if
      dup /pdfStroke exch def aload pop pdfStrokeXform setcolor
     /pdfLastStroke true def /pdfLastFill false def } def
/op { /pdfFillOP exch def
      pdfLastFill { pdfFillOP setoverprint } if } def
/OP { /pdfStrokeOP exch def
      pdfLastStroke { pdfStrokeOP setoverprint } if } def
/fCol {
  pdfLastFill not {
    pdfFillCS setcolorspace
    pdfFill aload pop pdfFillXform setcolor
    pdfFillOP setoverprint
    /pdfLastFill true def /pdfLastStroke false def
  } if
} def
/sCol {
  pdfLastStroke not {
    pdfStrokeCS setcolorspace
    pdfStroke aload pop pdfStrokeXform setcolor
    pdfStrokeOP setoverprint
    /pdfLastStroke true def /pdfLastFill false def
  } if
} def
% build a font
/pdfMakeFont {
  4 3 roll findfont
  4 2 roll matrix scale makefont
  dup length dict begin
    { 1 index /FID ne { def } { pop pop } ifelse } forall
    /Encoding exch def
    currentdict
  end
  definefont pop
} def
/pdfMakeFont16 {
  exch findfont
  dup length dict begin
    { 1 index /FID ne { def } { pop pop } ifelse } forall
    /WMode exch def
    currentdict
  end
  definefont pop
} def
% graphics state operators
/q { gsave pdfDictSize dict begin } def
/Q {
  end grestore
  /pdfLastFill where {
    pop
    pdfLastFill {
      pdfFillOP setoverprint
    } {
      pdfStrokeOP setoverprint
    } ifelse
  } if
} def
/cm { concat } def
/d { setdash } def
/i { setflat } def
/j { setlinejoin } def
/J { setlinecap } def
/M { setmiterlimit } def
/w { setlinewidth } def
% path segment operators
/m { moveto } def
/l { lineto } def
/c { curveto } def
/re { 4 2 roll moveto 1 index 0 rlineto 0 exch rlineto
      neg 0 rlineto closepath } def
/h { closepath } def
% path painting operators
/S { sCol stroke } def
/Sf { fCol stroke } def
/f { fCol fill } def
/f* { fCol eofill } def
% clipping operators
/W { clip newpath } def
/W* { eoclip newpath } def
/Ws { strokepath clip newpath } def
% text state operators
/Tc { /pdfCharSpacing exch def } def
/Tf { dup /pdfFontSize exch def
      dup pdfHorizScaling mul exch matrix scale
      pdfTextMat matrix concatmatrix dup 4 0 put dup 5 0 put
      exch findfont exch makefont setfont } def
/Tr { /pdfTextRender exch def } def
/Tp { /pdfPatternCS exch def } def
/Ts { /pdfTextRise exch def } def
/Tw { /pdfWordSpacing exch def } def
/Tz { /pdfHorizScaling exch def } def
% text positioning operators
/Td { pdfTextMat transform moveto } def
/Tm { /pdfTextMat exch def } def
% text string operators
/xyshow where {
  pop
  /xyshow2 {
    dup length array
    0 2 2 index length 1 sub {
      2 index 1 index 2 copy get 3 1 roll 1 add get
      pdfTextMat dtransform
      4 2 roll 2 copy 6 5 roll put 1 add 3 1 roll dup 4 2 roll put
    } for
    exch pop
    xyshow
  } def
}{
  /xyshow2 {
    currentfont /FontType get 0 eq {
      0 2 3 index length 1 sub {
        currentpoint 4 index 3 index 2 getinterval show moveto
        2 copy get 2 index 3 2 roll 1 add get
        pdfTextMat dtransform rmoveto
      } for
    } {
      0 1 3 index length 1 sub {
        currentpoint 4 index 3 index 1 getinterval show moveto
        2 copy 2 mul get 2 index 3 2 roll 2 mul 1 add get
        pdfTextMat dtransform rmoveto
      } for
    } ifelse
    pop pop
  } def
} ifelse
/cshow where {
  pop
  /xycp {
    0 3 2 roll
    {
      pop pop currentpoint 3 2 roll
      1 string dup 0 4 3 roll put false charpath moveto
      2 copy get 2 index 2 index 1 add get
      pdfTextMat dtransform rmoveto
      2 add
    } exch cshow
    pop pop
  } def
}{
  /xycp {
    currentfont /FontType get 0 eq {
      0 2 3 index length 1 sub {
        currentpoint 4 index 3 index 2 getinterval false charpath moveto
        2 copy get 2 index 3 2 roll 1 add get
        pdfTextMat dtransform rmoveto
      } for
    } {
      0 1 3 index length 1 sub {
        currentpoint 4 index 3 index 1 getinterval false charpath moveto
        2 copy 2 mul get 2 index 3 2 roll 2 mul 1 add get
        pdfTextMat dtransform rmoveto
      } for
    } ifelse
    pop pop
  } def
} ifelse
/Tj {
  fCol
  0 pdfTextRise pdfTextMat dtransform rmoveto
  currentpoint 4 2 roll
  pdfTextRender 1 and 0 eq {
    2 copy xyshow2
  } if
  pdfTextRender 3 and dup 1 eq exch 2 eq or {
    3 index 3 index moveto
    2 copy
    currentfont /FontType get 3 eq { fCol } { sCol } ifelse
    xycp currentpoint stroke moveto
  } if
  pdfTextRender 4 and 0 ne {
    4 2 roll moveto xycp
    /pdfTextClipPath [ pdfTextClipPath aload pop
      {/moveto cvx}
      {/lineto cvx}
      {/curveto cvx}
      {/closepath cvx}
    pathforall ] def
    currentpoint newpath moveto
  } {
    pop pop pop pop
  } ifelse
  0 pdfTextRise neg pdfTextMat dtransform rmoveto
} def
/TJm { 0.001 mul pdfFontSize mul pdfHorizScaling mul neg 0
       pdfTextMat dtransform rmoveto } def
/TJmV { 0.001 mul pdfFontSize mul neg 0 exch
        pdfTextMat dtransform rmoveto } def
/Tclip { pdfTextClipPath cvx exec clip newpath
         /pdfTextClipPath [] def } def
/Tclip* { pdfTextClipPath cvx exec eoclip newpath
         /pdfTextClipPath [] def } def
% Level 2/3 image operators
/pdfImBuf 100 string def
/pdfImStr {
  2 copy exch length lt {
    2 copy get exch 1 add exch
  } {
    ()
  } ifelse
} def
/skipEOD {
  { currentfile pdfImBuf readline
    not { pop exit } if
    (%-EOD-) eq { exit } if } loop
} def
/pdfIm { image skipEOD } def
/pdfImM { fCol imagemask skipEOD } def
/pr { 2 index 2 index 3 2 roll putinterval 4 add } def
/pdfImClip {
  gsave
  0 2 4 index length 1 sub {
    dup 4 index exch 2 copy
    get 5 index div put
    1 add 3 index exch 2 copy
    get 3 index div put
  } for
  pop pop rectclip
} def
/pdfImClipEnd { grestore } def
% shading operators
/colordelta {
  false 0 1 3 index length 1 sub {
    dup 4 index exch get 3 index 3 2 roll get sub abs 0.004 gt {
      pop true
    } if
  } for
  exch pop exch pop
} def
/funcCol { func n array astore } def
/funcSH {
  dup 0 eq {
    true
  } {
    dup 6 eq {
      false
    } {
      4 index 4 index funcCol dup
      6 index 4 index funcCol dup
      3 1 roll colordelta 3 1 roll
      5 index 5 index funcCol dup
      3 1 roll colordelta 3 1 roll
      6 index 8 index funcCol dup
      3 1 roll colordelta 3 1 roll
      colordelta or or or
    } ifelse
  } ifelse
  {
    1 add
    4 index 3 index add 0.5 mul exch 4 index 3 index add 0.5 mul exch
    6 index 6 index 4 index 4 index 4 index funcSH
    2 index 6 index 6 index 4 index 4 index funcSH
    6 index 2 index 4 index 6 index 4 index funcSH
    5 3 roll 3 2 roll funcSH pop pop
  } {
    pop 3 index 2 index add 0.5 mul 3 index  2 index add 0.5 mul
    funcCol sc
    dup 4 index exch mat transform m
    3 index 3 index mat transform l
    1 index 3 index mat transform l
    mat transform l pop pop h f*
  } ifelse
} def
/axialCol {
  dup 0 lt {
    pop t0
  } {
    dup 1 gt {
      pop t1
    } {
      dt mul t0 add
    } ifelse
  } ifelse
  func n array astore
} def
/axialSH {
  dup 0 eq {
    true
  } {
    dup 8 eq {
      false
    } {
      2 index axialCol 2 index axialCol colordelta
    } ifelse
  } ifelse
  {
    1 add 3 1 roll 2 copy add 0.5 mul
    dup 4 3 roll exch 4 index axialSH
    exch 3 2 roll axialSH
  } {
    pop 2 copy add 0.5 mul
    axialCol sc
    exch dup dx mul x0 add exch dy mul y0 add
    3 2 roll dup dx mul x0 add exch dy mul y0 add
    dx abs dy abs ge {
      2 copy yMin sub dy mul dx div add yMin m
      yMax sub dy mul dx div add yMax l
      2 copy yMax sub dy mul dx div add yMax l
      yMin sub dy mul dx div add yMin l
      h f*
    } {
      exch 2 copy xMin sub dx mul dy div add xMin exch m
      xMax sub dx mul dy div add xMax exch l
      exch 2 copy xMax sub dx mul dy div add xMax exch l
      xMin sub dx mul dy div add xMin exch l
      h f*
    } ifelse
  } ifelse
} def
/radialCol {
  dup t0 lt {
    pop t0
  } {
    dup t1 gt {
      pop t1
    } if
  } ifelse
  func n array astore
} def
/radialSH {
  dup 0 eq {
    true
  } {
    dup 8 eq {
      false
    } {
      2 index dt mul t0 add radialCol
      2 index dt mul t0 add radialCol colordelta
    } ifelse
  } ifelse
  {
    1 add 3 1 roll 2 copy add 0.5 mul
    dup 4 3 roll exch 4 index radialSH
    exch 3 2 roll radialSH
  } {
    pop 2 copy add 0.5 mul dt mul t0 add
    radialCol sc
    encl {
      exch dup dx mul x0 add exch dup dy mul y0 add exch dr mul r0 add
      0 360 arc h
      dup dx mul x0 add exch dup dy mul y0 add exch dr mul r0 add
      360 0 arcn h f
    } {
      2 copy
      dup dx mul x0 add exch dup dy mul y0 add exch dr mul r0 add
      a1 a2 arcn
      dup dx mul x0 add exch dup dy mul y0 add exch dr mul r0 add
      a2 a1 arcn h
      dup dx mul x0 add exch dup dy mul y0 add exch dr mul r0 add
      a1 a2 arc
      dup dx mul x0 add exch dup dy mul y0 add exch dr mul r0 add
      a2 a1 arc h f
    } ifelse
  } ifelse
} def
end
%%EndResource
%%EndProlog
%%BeginSetup
xpdf begin
false pdfSetup
%%EndSetup
%%Page: 1 1
%%PageMedia: 78x61mm
%%PageBoundingBox: 0 0 223 173
%%PageOrientation: Portrait
%%BeginPageSetup
223 173 pdfSetupPaper
pdfStartPage
0 0 223 173 re W
%%EndPageSetup
[] 0 d
1 i
0 j
0 J
10 M
1 w
/DeviceGray {} cs
[0] sc
/DeviceGray {} CS
[0] SC
false op
false OP
{} settransfer
q
/DeviceRGB {} cs
[0 0 0] sc
/DeviceRGB {} CS
[0 0 0] SC
[1 0 0 -1 0 173] cm
q
q
Q
Q
q
q
Q
q
/DeviceRGB {} cs
[0 0 0] sc
[0 0 0] sc
[0 0 0] SC
1 w
2 J
0 j
[] 0 d
Q
Q
q
0 0 223 173 re
W*
q
/DeviceRGB {} cs
[0 0 0] sc
[0 0 0] sc
[0 0 0] SC
1 w
2 J
0 j
[] 0 d
Q
q
/DeviceRGB {} cs
[0 0 0] sc
[1 1 1] sc
0 0 223 173 re
f
Q
q
/DeviceRGB {} cs
[0 0 0] sc
[0 0 0] sc
[0 0 0] SC
1 w
2 J
0 j
[] 0 d
Q
Q
q
0 0 223 173 re
W*
0 0 223 173 re
W*
q
/DeviceRGB {} cs
[0 0 0] sc
[0 0 0] sc
[0 0 0] SC
1 w
2 J
0 j
[] 0 d
Q
q
[1 0 0 1 0.5 0.5] cm
/DeviceRGB {} cs
[0 0 0] sc
[0 0 0] sc
[0 0 0] SC
1 w
2 J
0 j
[] 0 d
Q
q
/DeviceRGB {} cs
[0 0 0] sc
[1 1 1] sc
0.98252 169.797334 m
42.023572 110.504569 l
80.970336 171.193527 l
0.98252 169.797334 l
h
f
Q
q
[0.0174524 -0.999848 0.999848 0.0174524 -99.194226 179.050418] cm
[0 0 0] SC
1 w
0 J
0 j
[] 0 d
11 100 m
71 140 l
11 180 l
11 100 l
h
S
Q
q
[1 0 0 1 0.5 0.5] cm
/DeviceRGB {} cs
[0 0 0] sc
[0 0 0] sc
[0 0 0] SC
1 w
2 J
0 j
[] 0 d
Q
q
/DeviceRGB {} cs
[0 0 0] sc
[0 0 0] sc
[0 0 0] SC
1 w
2 J
0 j
[] 0 d
Q
q
[1 0 0 1 0.5 0.5] cm
/DeviceRGB {} cs
[0 0 0] sc
[0 0 0] sc
[0 0 0] SC
1 w
2 J
0 j
[] 0 d
Q
q
/DeviceRGB {} cs
[0 0 0] sc
[1 1 1] sc
141.5 170.5 m
181.5 110.5 l
221.5 170.5 l
141.5 170.5 l
h
f
Q
q
[0 -1 1 0 41.5 321.5] cm
[0 0 0] SC
1 w
0 J
0 j
[] 0 d
151 100 m
211 140 l
151 180 l
151 100 l
h
S
Q
q
[1 0 0 1 0.5 0.5] cm
/DeviceRGB {} cs
[0 0 0] sc
[0 0 0] sc
[0 0 0] SC
1 w
2 J
0 j
[] 0 d
Q
q
/DeviceRGB {} cs
[0 0 0] sc
[0 0 0] sc
[0 0 0] SC
1 w
2 J
0 j
[] 0 d
Q
q
[1 0 0 1 0.5 0.5] cm
/DeviceRGB {} cs
[0 0 0] sc
[0 0 0] sc
[0 0 0] SC
1 w
2 J
0 j
[] 0 d
Q
q
/DeviceRGB {} cs
[0 0 0] sc
[1 1 1] sc
131.5 20.5 m
131.5 31.545695 122.545694 40.5 111.5 40.5 c
100.454305 40.5 91.5 31.545695 91.5 20.5 c
91.5 9.454305 100.454305 0.5 111.5 0.5 c
122.545694 0.5 131.5 9.454305 131.5 20.5 c
h
f
Q
q
[1 0 0 1 0.5 0.5] cm
[0 0 0] SC
1 w
0 J
0 j
[] 0 d
131 20 m
131 31.045695 122.045694 40 111 40 c
99.954305 40 91 31.045695 91 20 c
91 8.954305 99.954305 0 111 0 c
122.045694 0 131 8.954305 131 20 c
h
S
/DeviceRGB {} cs
[0 0 0] sc
[0 0 0] sc
[0 0 0] SC
1 w
2 J
0 j
[] 0 d
Q
q
/DeviceRGB {} cs
[0 0 0] sc
[0 0 0] sc
[0 0 0] SC
1 w
2 J
0 j
[] 0 d
Q
q
[1 0 0 1 0.5 0.5] cm
/DeviceRGB {} cs
[0 0 0] sc
[0 0 0] sc
[0 0 0] SC
1 w
2 J
0 j
[] 0 d
[0 0 0] SC
1 w
0 J
0 j
[] 0 d
100.93 37.279999 m
53.619999 118.36 l
S
/DeviceRGB {} cs
[0 0 0] sc
[0 0 0] sc
[0 0 0] SC
1 w
2 J
0 j
[] 0 d
Q
q
/DeviceRGB {} cs
[0 0 0] sc
[0 0 0] sc
51.48 123.389999 m
51.98 115.580001 l
54.119999 118.86 l
58.029999 119.11 l
51.48 123.389999 l
h
f
Q
q
[1 0 0 1 0.5 0.5] cm
[0 0 0] SC
1 w
0 J
0 j
[] 0 d
50.98 122.889999 m
51.48 115.080001 l
53.619999 118.36 l
57.529999 118.61 l
50.98 122.889999 l
h
S
/DeviceRGB {} cs
[0 0 0] sc
[0 0 0] sc
[0 0 0] SC
1 w
2 J
0 j
[] 0 d
Q
q
/DeviceRGB {} cs
[0 0 0] sc
[0 0 0] sc
[0 0 0] SC
1 w
2 J
0 j
[] 0 d
Q
q
[1 0 0 1 0.5 0.5] cm
/DeviceRGB {} cs
[0 0 0] sc
[0 0 0] sc
[0 0 0] SC
1 w
2 J
0 j
[] 0 d
[0 0 0] SC
1 w
0 J
0 j
[] 0 d
120.989997 37.32 m
168.449996 118.5 l
S
/DeviceRGB {} cs
[0 0 0] sc
[0 0 0] sc
[0 0 0] SC
1 w
2 J
0 j
[] 0 d
Q
q
/DeviceRGB {} cs
[0 0 0] sc
[0 0 0] sc
171.600006 123.529998 m
165.050003 119.260002 l
168.949996 119 l
171.089996 115.730003 l
171.600006 123.529998 l
h
f
Q
q
[1 0 0 1 0.5 0.5] cm
[0 0 0] SC
1 w
0 J
0 j
[] 0 d
171.100006 123.029998 m
164.550003 118.760002 l
168.449996 118.5 l
170.589996 115.230003 l
171.100006 123.029998 l
h
S
/DeviceRGB {} cs
[0 0 0] sc
[0 0 0] sc
[0 0 0] SC
1 w
2 J
0 j
[] 0 d
Q
q
/DeviceRGB {} cs
[0 0 0] sc
[0 0 0] sc
[0 0 0] SC
1 w
2 J
0 j
[] 0 d
Q
q
[1 0 0 1 0.5 0.5] cm
/DeviceRGB {} cs
[0 0 0] sc
[0 0 0] sc
[0 0 0] SC
1 w
2 J
0 j
[] 0 d
Q
q
/DeviceRGB {} cs
[0 0 0] sc
[0 0 0] sc
[0 0 0] SC
1 w
2 J
0 j
[] 0 d
Q
q
[1 0 0 1 107 14] cm
/DeviceRGB {} cs
[0 0 0] sc
[0 0 0] sc
[0 0 0] SC
1 w
2 J
0 j
[] 0 d
[0 0 0] SC
0 w
2 J
2 j
[] 0 d
q
/DeviceRGB {} cs
[0 0 0] sc
[0 0 0] sc
Q
Q
q
/DeviceRGB {} cs
[0 0 0] sc
[0 0 0] sc
108.75 15.392578 m
109.763671 15.392578 l
109.763671 20.390625 l
112.470703 17.724609 l
113.818359 17.724609 l
111.416015 20.074219 l
113.953125 24 l
112.605468 24 l
110.648437 20.835938 l
109.763671 21.644531 l
109.763671 24 l
108.75 24 l
108.75 15.392578 l
h
f
Q
q
[1 0 0 1 107 14] cm
/DeviceRGB {} cs
[0 0 0] sc
[0 0 0] sc
[0 0 0] SC
0 w
2 J
2 j
[] 0 d
q
Q
[0 0 0] SC
1 w
2 J
0 j
[] 0 d
Q
q
/DeviceRGB {} cs
[0 0 0] sc
[0 0 0] sc
[0 0 0] SC
1 w
2 J
0 j
[] 0 d
Q
q
[1 0 0 1 0.5 0.5] cm
/DeviceRGB {} cs
[0 0 0] sc
[0 0 0] sc
[0 0 0] SC
1 w
2 J
0 j
[] 0 d
Q
q
/DeviceRGB {} cs
[0 0 0] sc
[0 0 0] sc
[0 0 0] SC
1 w
2 J
0 j
[] 0 d
Q
q
[1 0 0 1 32 144] cm
/DeviceRGB {} cs
[0 0 0] sc
[0 0 0] sc
[0 0 0] SC
1 w
2 J
0 j
[] 0 d
[0 0 0] SC
0 w
2 J
2 j
[] 0 d
q
/DeviceRGB {} cs
[0 0 0] sc
[0 0 0] sc
Q
Q
q
/DeviceRGB {} cs
[0 0 0] sc
[0 0 0] sc
33.164063 150.449218 m
40.013672 147.765625 l
40.013672 148.820312 l
34.412109 150.935546 l
40.013672 153.05664 l
40.013672 154.111328 l
33.164063 151.421875 l
33.164063 150.449218 l
h
44.078125 145.392578 m
45.091797 145.392578 l
45.091797 150.390625 l
47.798828 147.724609 l
49.146484 147.724609 l
46.744141 150.074218 l
49.28125 154 l
47.933594 154 l
45.976563 150.835937 l
45.091797 151.644531 l
45.091797 154 l
44.078125 154 l
44.078125 145.392578 l
h
f
Q
q
[1 0 0 1 32 144] cm
/DeviceRGB {} cs
[0 0 0] sc
[0 0 0] sc
[0 0 0] SC
0 w
2 J
2 j
[] 0 d
q
Q
[0 0 0] SC
1 w
2 J
0 j
[] 0 d
Q
q
/DeviceRGB {} cs
[0 0 0] sc
[0 0 0] sc
[0 0 0] SC
1 w
2 J
0 j
[] 0 d
Q
q
[1 0 0 1 0.5 0.5] cm
/DeviceRGB {} cs
[0 0 0] sc
[0 0 0] sc
[0 0 0] SC
1 w
2 J
0 j
[] 0 d
Q
q
/DeviceRGB {} cs
[0 0 0] sc
[0 0 0] sc
[0 0 0] SC
1 w
2 J
0 j
[] 0 d
Q
q
[1 0 0 1 175 144] cm
/DeviceRGB {} cs
[0 0 0] sc
[0 0 0] sc
[0 0 0] SC
1 w
2 J
0 j
[] 0 d
[0 0 0] SC
0 w
2 J
2 j
[] 0 d
q
/DeviceRGB {} cs
[0 0 0] sc
[0 0 0] sc
Q
Q
q
/DeviceRGB {} cs
[0 0 0] sc
[0 0 0] sc
183.013671 151.433593 m
176.164062 154.111328 l
176.164062 153.05664 l
181.759765 150.935546 l
176.164062 148.820312 l
176.164062 147.765625 l
183.013671 150.449218 l
183.013671 151.433593 l
h
187.078125 145.392578 m
188.091796 145.392578 l
188.091796 150.390625 l
190.798828 147.724609 l
192.146484 147.724609 l
189.74414 150.074218 l
192.28125 154 l
190.933593 154 l
188.976562 150.835937 l
188.091796 151.644531 l
188.091796 154 l
187.078125 154 l
187.078125 145.392578 l
h
f
Q
q
[1 0 0 1 175 144] cm
/DeviceRGB {} cs
[0 0 0] sc
[0 0 0] sc
[0 0 0] SC
0 w
2 J
2 j
[] 0 d
q
Q
[0 0 0] SC
1 w
2 J
0 j
[] 0 d
Q
q
/DeviceRGB {} cs
[0 0 0] sc
[0 0 0] sc
[0 0 0] SC
1 w
2 J
0 j
[] 0 d
Q
Q
q
q
/DeviceRGB {} cs
[0 0 0] sc
[0 0 0] sc
[0 0 0] SC
1 w
2 J
0 j
[] 0 d
Q
Q
q
0 0 223 173 re
W*
q
/DeviceRGB {} cs
[0 0 0] sc
[0 0 0] sc
[0 0 0] SC
1 w
2 J
0 j
[] 0 d
Q
q
/DeviceRGB {} cs
[0 0 0] sc
[0 0 0] sc
[0 0 0] SC
1 w
2 J
0 j
[] 0 d
Q
Q
q
0 0 223 173 re
W*
0 0 223 173 re
W*
q
/DeviceRGB {} cs
[0 0 0] sc
[0 0 0] sc
[0 0 0] SC
1 w
2 J
0 j
[] 0 d
Q
Q
q
q
/DeviceRGB {} cs
[0 0 0] sc
[0 0 0] sc
[0 0 0] SC
1 w
2 J
0 j
[] 0 d
Q
Q
q
0 0 223 173 re
W*
q
/DeviceRGB {} cs
[0 0 0] sc
[0 0 0] sc
[0 0 0] SC
1 w
2 J
0 j
[] 0 d
Q
q
/DeviceRGB {} cs
[0 0 0] sc
[0 0 0] sc
[0 0 0] SC
1 w
2 J
0 j
[] 0 d
Q
Q
q
q
/DeviceRGB {} cs
[0 0 0] sc
[0 0 0] sc
[0 0 0] SC
1 w
2 J
0 j
[] 0 d
Q
Q
Q
showpage
%%PageTrailer
pdfEndPage
%%Trailer
end
%%DocumentSuppliedResources:
%%EOF
