%!PS-Adobe-3.0
%Produced by poppler pdftops version: 0.26.5 (http://poppler.freedesktop.org)
%%Creator: 
%%LanguageLevel: 2
%%DocumentSuppliedResources: (atend)
%%DocumentMedia: 92x21mm 262 62 0 () ()
%%BoundingBox: 0 0 262 62
%%Pages: 1
%%EndComments
%%BeginProlog
%%BeginResource: procset xpdf 3.00 0
%%Copyright: Copyright 1996-2011 Glyph & Cog, LLC
/xpdf 75 dict def xpdf begin
% PDF special state
/pdfDictSize 15 def
/pdfSetup {
  /setpagedevice where {
    pop 2 dict begin
      /Policies 1 dict dup begin /PageSize 6 def end def
      { /Duplex true def } if
    currentdict end setpagedevice
  } {
    pop
  } ifelse
} def
/pdfSetupPaper {
  % Change paper size, but only if different from previous paper size otherwise
  % duplex fails. PLRM specifies a tolerance of 5 pts when matching paper size
  % so we use the same when checking if the size changes.
  /setpagedevice where {
    pop currentpagedevice
    /PageSize known {
      2 copy
      currentpagedevice /PageSize get aload pop
      exch 4 1 roll
      sub abs 5 gt
      3 1 roll
      sub abs 5 gt
      or
    } {
      true
    } ifelse
    {
      2 array astore
      2 dict begin
        /PageSize exch def
        /ImagingBBox null def
      currentdict end
      setpagedevice
    } {
      pop pop
    } ifelse
  } {
    pop
  } ifelse
} def
/pdfStartPage {
  pdfDictSize dict begin
  /pdfFillCS [] def
  /pdfFillXform {} def
  /pdfStrokeCS [] def
  /pdfStrokeXform {} def
  /pdfFill [0] def
  /pdfStroke [0] def
  /pdfFillOP false def
  /pdfStrokeOP false def
  /pdfLastFill false def
  /pdfLastStroke false def
  /pdfTextMat [1 0 0 1 0 0] def
  /pdfFontSize 0 def
  /pdfCharSpacing 0 def
  /pdfTextRender 0 def
  /pdfPatternCS false def
  /pdfTextRise 0 def
  /pdfWordSpacing 0 def
  /pdfHorizScaling 1 def
  /pdfTextClipPath [] def
} def
/pdfEndPage { end } def
% PDF color state
/cs { /pdfFillXform exch def dup /pdfFillCS exch def
      setcolorspace } def
/CS { /pdfStrokeXform exch def dup /pdfStrokeCS exch def
      setcolorspace } def
/sc { pdfLastFill not { pdfFillCS setcolorspace } if
      dup /pdfFill exch def aload pop pdfFillXform setcolor
     /pdfLastFill true def /pdfLastStroke false def } def
/SC { pdfLastStroke not { pdfStrokeCS setcolorspace } if
      dup /pdfStroke exch def aload pop pdfStrokeXform setcolor
     /pdfLastStroke true def /pdfLastFill false def } def
/op { /pdfFillOP exch def
      pdfLastFill { pdfFillOP setoverprint } if } def
/OP { /pdfStrokeOP exch def
      pdfLastStroke { pdfStrokeOP setoverprint } if } def
/fCol {
  pdfLastFill not {
    pdfFillCS setcolorspace
    pdfFill aload pop pdfFillXform setcolor
    pdfFillOP setoverprint
    /pdfLastFill true def /pdfLastStroke false def
  } if
} def
/sCol {
  pdfLastStroke not {
    pdfStrokeCS setcolorspace
    pdfStroke aload pop pdfStrokeXform setcolor
    pdfStrokeOP setoverprint
    /pdfLastStroke true def /pdfLastFill false def
  } if
} def
% build a font
/pdfMakeFont {
  4 3 roll findfont
  4 2 roll matrix scale makefont
  dup length dict begin
    { 1 index /FID ne { def } { pop pop } ifelse } forall
    /Encoding exch def
    currentdict
  end
  definefont pop
} def
/pdfMakeFont16 {
  exch findfont
  dup length dict begin
    { 1 index /FID ne { def } { pop pop } ifelse } forall
    /WMode exch def
    currentdict
  end
  definefont pop
} def
% graphics state operators
/q { gsave pdfDictSize dict begin } def
/Q {
  end grestore
  /pdfLastFill where {
    pop
    pdfLastFill {
      pdfFillOP setoverprint
    } {
      pdfStrokeOP setoverprint
    } ifelse
  } if
} def
/cm { concat } def
/d { setdash } def
/i { setflat } def
/j { setlinejoin } def
/J { setlinecap } def
/M { setmiterlimit } def
/w { setlinewidth } def
% path segment operators
/m { moveto } def
/l { lineto } def
/c { curveto } def
/re { 4 2 roll moveto 1 index 0 rlineto 0 exch rlineto
      neg 0 rlineto closepath } def
/h { closepath } def
% path painting operators
/S { sCol stroke } def
/Sf { fCol stroke } def
/f { fCol fill } def
/f* { fCol eofill } def
% clipping operators
/W { clip newpath } def
/W* { eoclip newpath } def
/Ws { strokepath clip newpath } def
% text state operators
/Tc { /pdfCharSpacing exch def } def
/Tf { dup /pdfFontSize exch def
      dup pdfHorizScaling mul exch matrix scale
      pdfTextMat matrix concatmatrix dup 4 0 put dup 5 0 put
      exch findfont exch makefont setfont } def
/Tr { /pdfTextRender exch def } def
/Tp { /pdfPatternCS exch def } def
/Ts { /pdfTextRise exch def } def
/Tw { /pdfWordSpacing exch def } def
/Tz { /pdfHorizScaling exch def } def
% text positioning operators
/Td { pdfTextMat transform moveto } def
/Tm { /pdfTextMat exch def } def
% text string operators
/xyshow where {
  pop
  /xyshow2 {
    dup length array
    0 2 2 index length 1 sub {
      2 index 1 index 2 copy get 3 1 roll 1 add get
      pdfTextMat dtransform
      4 2 roll 2 copy 6 5 roll put 1 add 3 1 roll dup 4 2 roll put
    } for
    exch pop
    xyshow
  } def
}{
  /xyshow2 {
    currentfont /FontType get 0 eq {
      0 2 3 index length 1 sub {
        currentpoint 4 index 3 index 2 getinterval show moveto
        2 copy get 2 index 3 2 roll 1 add get
        pdfTextMat dtransform rmoveto
      } for
    } {
      0 1 3 index length 1 sub {
        currentpoint 4 index 3 index 1 getinterval show moveto
        2 copy 2 mul get 2 index 3 2 roll 2 mul 1 add get
        pdfTextMat dtransform rmoveto
      } for
    } ifelse
    pop pop
  } def
} ifelse
/cshow where {
  pop
  /xycp {
    0 3 2 roll
    {
      pop pop currentpoint 3 2 roll
      1 string dup 0 4 3 roll put false charpath moveto
      2 copy get 2 index 2 index 1 add get
      pdfTextMat dtransform rmoveto
      2 add
    } exch cshow
    pop pop
  } def
}{
  /xycp {
    currentfont /FontType get 0 eq {
      0 2 3 index length 1 sub {
        currentpoint 4 index 3 index 2 getinterval false charpath moveto
        2 copy get 2 index 3 2 roll 1 add get
        pdfTextMat dtransform rmoveto
      } for
    } {
      0 1 3 index length 1 sub {
        currentpoint 4 index 3 index 1 getinterval false charpath moveto
        2 copy 2 mul get 2 index 3 2 roll 2 mul 1 add get
        pdfTextMat dtransform rmoveto
      } for
    } ifelse
    pop pop
  } def
} ifelse
/Tj {
  fCol
  0 pdfTextRise pdfTextMat dtransform rmoveto
  currentpoint 4 2 roll
  pdfTextRender 1 and 0 eq {
    2 copy xyshow2
  } if
  pdfTextRender 3 and dup 1 eq exch 2 eq or {
    3 index 3 index moveto
    2 copy
    currentfont /FontType get 3 eq { fCol } { sCol } ifelse
    xycp currentpoint stroke moveto
  } if
  pdfTextRender 4 and 0 ne {
    4 2 roll moveto xycp
    /pdfTextClipPath [ pdfTextClipPath aload pop
      {/moveto cvx}
      {/lineto cvx}
      {/curveto cvx}
      {/closepath cvx}
    pathforall ] def
    currentpoint newpath moveto
  } {
    pop pop pop pop
  } ifelse
  0 pdfTextRise neg pdfTextMat dtransform rmoveto
} def
/TJm { 0.001 mul pdfFontSize mul pdfHorizScaling mul neg 0
       pdfTextMat dtransform rmoveto } def
/TJmV { 0.001 mul pdfFontSize mul neg 0 exch
        pdfTextMat dtransform rmoveto } def
/Tclip { pdfTextClipPath cvx exec clip newpath
         /pdfTextClipPath [] def } def
/Tclip* { pdfTextClipPath cvx exec eoclip newpath
         /pdfTextClipPath [] def } def
% Level 2/3 image operators
/pdfImBuf 100 string def
/pdfImStr {
  2 copy exch length lt {
    2 copy get exch 1 add exch
  } {
    ()
  } ifelse
} def
/skipEOD {
  { currentfile pdfImBuf readline
    not { pop exit } if
    (%-EOD-) eq { exit } if } loop
} def
/pdfIm { image skipEOD } def
/pdfImM { fCol imagemask skipEOD } def
/pr { 2 index 2 index 3 2 roll putinterval 4 add } def
/pdfImClip {
  gsave
  0 2 4 index length 1 sub {
    dup 4 index exch 2 copy
    get 5 index div put
    1 add 3 index exch 2 copy
    get 3 index div put
  } for
  pop pop rectclip
} def
/pdfImClipEnd { grestore } def
% shading operators
/colordelta {
  false 0 1 3 index length 1 sub {
    dup 4 index exch get 3 index 3 2 roll get sub abs 0.004 gt {
      pop true
    } if
  } for
  exch pop exch pop
} def
/funcCol { func n array astore } def
/funcSH {
  dup 0 eq {
    true
  } {
    dup 6 eq {
      false
    } {
      4 index 4 index funcCol dup
      6 index 4 index funcCol dup
      3 1 roll colordelta 3 1 roll
      5 index 5 index funcCol dup
      3 1 roll colordelta 3 1 roll
      6 index 8 index funcCol dup
      3 1 roll colordelta 3 1 roll
      colordelta or or or
    } ifelse
  } ifelse
  {
    1 add
    4 index 3 index add 0.5 mul exch 4 index 3 index add 0.5 mul exch
    6 index 6 index 4 index 4 index 4 index funcSH
    2 index 6 index 6 index 4 index 4 index funcSH
    6 index 2 index 4 index 6 index 4 index funcSH
    5 3 roll 3 2 roll funcSH pop pop
  } {
    pop 3 index 2 index add 0.5 mul 3 index  2 index add 0.5 mul
    funcCol sc
    dup 4 index exch mat transform m
    3 index 3 index mat transform l
    1 index 3 index mat transform l
    mat transform l pop pop h f*
  } ifelse
} def
/axialCol {
  dup 0 lt {
    pop t0
  } {
    dup 1 gt {
      pop t1
    } {
      dt mul t0 add
    } ifelse
  } ifelse
  func n array astore
} def
/axialSH {
  dup 0 eq {
    true
  } {
    dup 8 eq {
      false
    } {
      2 index axialCol 2 index axialCol colordelta
    } ifelse
  } ifelse
  {
    1 add 3 1 roll 2 copy add 0.5 mul
    dup 4 3 roll exch 4 index axialSH
    exch 3 2 roll axialSH
  } {
    pop 2 copy add 0.5 mul
    axialCol sc
    exch dup dx mul x0 add exch dy mul y0 add
    3 2 roll dup dx mul x0 add exch dy mul y0 add
    dx abs dy abs ge {
      2 copy yMin sub dy mul dx div add yMin m
      yMax sub dy mul dx div add yMax l
      2 copy yMax sub dy mul dx div add yMax l
      yMin sub dy mul dx div add yMin l
      h f*
    } {
      exch 2 copy xMin sub dx mul dy div add xMin exch m
      xMax sub dx mul dy div add xMax exch l
      exch 2 copy xMax sub dx mul dy div add xMax exch l
      xMin sub dx mul dy div add xMin exch l
      h f*
    } ifelse
  } ifelse
} def
/radialCol {
  dup t0 lt {
    pop t0
  } {
    dup t1 gt {
      pop t1
    } if
  } ifelse
  func n array astore
} def
/radialSH {
  dup 0 eq {
    true
  } {
    dup 8 eq {
      false
    } {
      2 index dt mul t0 add radialCol
      2 index dt mul t0 add radialCol colordelta
    } ifelse
  } ifelse
  {
    1 add 3 1 roll 2 copy add 0.5 mul
    dup 4 3 roll exch 4 index radialSH
    exch 3 2 roll radialSH
  } {
    pop 2 copy add 0.5 mul dt mul t0 add
    radialCol sc
    encl {
      exch dup dx mul x0 add exch dup dy mul y0 add exch dr mul r0 add
      0 360 arc h
      dup dx mul x0 add exch dup dy mul y0 add exch dr mul r0 add
      360 0 arcn h f
    } {
      2 copy
      dup dx mul x0 add exch dup dy mul y0 add exch dr mul r0 add
      a1 a2 arcn
      dup dx mul x0 add exch dup dy mul y0 add exch dr mul r0 add
      a2 a1 arcn h
      dup dx mul x0 add exch dup dy mul y0 add exch dr mul r0 add
      a1 a2 arc
      dup dx mul x0 add exch dup dy mul y0 add exch dr mul r0 add
      a2 a1 arc h f
    } ifelse
  } ifelse
} def
end
%%EndResource
%%EndProlog
%%BeginSetup
xpdf begin
false pdfSetup
%%EndSetup
%%Page: 1 1
%%PageMedia: 92x21mm
%%PageBoundingBox: 0 0 262 62
%%PageOrientation: Portrait
%%BeginPageSetup
262 62 pdfSetupPaper
pdfStartPage
0 0 262 62 re W
%%EndPageSetup
[] 0 d
1 i
0 j
0 J
10 M
1 w
/DeviceGray {} cs
[0] sc
/DeviceGray {} CS
[0] SC
false op
false OP
{} settransfer
q
/DeviceRGB {} cs
[0 0 0] sc
/DeviceRGB {} CS
[0 0 0] SC
[1 0 0 -1 0 62] cm
q
q
Q
Q
q
q
Q
q
/DeviceRGB {} cs
[0 0 0] sc
[0 0 0] sc
[0 0 0] SC
1 w
2 J
0 j
[] 0 d
Q
Q
q
0 0 262 62 re
W*
q
/DeviceRGB {} cs
[0 0 0] sc
[0 0 0] sc
[0 0 0] SC
1 w
2 J
0 j
[] 0 d
Q
q
/DeviceRGB {} cs
[0 0 0] sc
[1 1 1] sc
0 0 262 62 re
f
Q
q
/DeviceRGB {} cs
[0 0 0] sc
[0 0 0] sc
[0 0 0] SC
1 w
2 J
0 j
[] 0 d
Q
Q
q
0 0 262 62 re
W*
0 0 262 62 re
W*
q
/DeviceRGB {} cs
[0 0 0] sc
[0 0 0] sc
[0 0 0] SC
1 w
2 J
0 j
[] 0 d
Q
q
[1 0 0 1 0.5 0.5] cm
/DeviceRGB {} cs
[0 0 0] sc
[0 0 0] sc
[0 0 0] SC
1 w
2 J
0 j
[] 0 d
Q
q
/DeviceRGB {} cs
[0 0 0] sc
[1 1 1] sc
q
[1 0 0 1 0.5 0.5] cm
60 30 40 20 re
f
Q
Q
q
[1 0 0 1 0.5 0.5] cm
[0 0 0] SC
1 w
0 J
0 j
[] 0 d
60 30 40 20 re
S
/DeviceRGB {} cs
[0 0 0] sc
[0 0 0] sc
[0 0 0] SC
1 w
2 J
0 j
[] 0 d
Q
q
/DeviceRGB {} cs
[0 0 0] sc
[0 0 0] sc
[0 0 0] SC
1 w
2 J
0 j
[] 0 d
Q
q
[1 0 0 1 0.5 0.5] cm
/DeviceRGB {} cs
[0 0 0] sc
[0 0 0] sc
[0 0 0] SC
1 w
2 J
0 j
[] 0 d
Q
q
/DeviceRGB {} cs
[0 0 0] sc
[1 1 1] sc
q
[1 0 0 1 0.5 0.5] cm
80 30 20 20 re
f
Q
Q
q
[1 0 0 1 0.5 0.5] cm
[0 0 0] SC
1 w
0 J
0 j
[] 0 d
80 30 20 20 re
S
/DeviceRGB {} cs
[0 0 0] sc
[0 0 0] sc
[0 0 0] SC
1 w
2 J
0 j
[] 0 d
Q
q
/DeviceRGB {} cs
[0 0 0] sc
[0 0 0] sc
[0 0 0] SC
1 w
2 J
0 j
[] 0 d
Q
q
[1 0 0 1 0.5 0.5] cm
/DeviceRGB {} cs
[0 0 0] sc
[0 0 0] sc
[0 0 0] SC
1 w
2 J
0 j
[] 0 d
Q
q
/DeviceRGB {} cs
[0 0 0] sc
[0 0 0] sc
[0 0 0] SC
1 w
2 J
0 j
[] 0 d
Q
q
[1 0 0 1 66 34] cm
/DeviceRGB {} cs
[0 0 0] sc
[0 0 0] sc
[0 0 0] SC
1 w
2 J
0 j
[] 0 d
[0 0 0] SC
0 w
2 J
2 j
[] 0 d
q
/DeviceRGB {} cs
[0 0 0] sc
[0 0 0] sc
Q
Q
q
/DeviceRGB {} cs
[0 0 0] sc
[0 0 0] sc
67.823242 42.113281 m
68.083008 41.578125 68.589844 41.091797 69.34375 40.654297 c
70.46875 40.003906 l
70.972656 39.710938 71.326172 39.460938 71.529297 39.253906 c
71.849609 38.929687 72.009766 38.558594 72.009766 38.140625 c
72.009766 37.652344 71.863281 37.264648 71.570312 36.977539 c
71.277344 36.69043 70.886719 36.546875 70.398437 36.546875 c
69.675781 36.546875 69.175781 36.820313 68.898437 37.367187 c
68.75 37.660156 68.667969 38.066406 68.652344 38.585938 c
67.580078 38.585938 l
67.591797 37.855469 67.726563 37.259766 67.984375 36.798828 c
68.441406 35.986328 69.248047 35.580078 70.404297 35.580078 c
71.365234 35.580078 72.067383 35.839844 72.510742 36.359375 c
72.954102 36.878906 73.175781 37.457031 73.175781 38.09375 c
73.175781 38.765625 72.939453 39.339844 72.466797 39.816406 c
72.193359 40.09375 71.703125 40.429687 70.996094 40.824219 c
70.193359 41.269531 l
69.810547 41.480469 69.509766 41.681641 69.291016 41.873047 c
68.900391 42.212891 68.654297 42.589844 68.552734 43.003906 c
73.134766 43.003906 l
73.134766 44 l
67.375 44 l
67.414063 43.277344 67.563477 42.648438 67.823242 42.113281 c
h
f
Q
q
[1 0 0 1 66 34] cm
/DeviceRGB {} cs
[0 0 0] sc
[0 0 0] sc
[0 0 0] SC
0 w
2 J
2 j
[] 0 d
q
Q
[0 0 0] SC
1 w
2 J
0 j
[] 0 d
Q
q
/DeviceRGB {} cs
[0 0 0] sc
[0 0 0] sc
[0 0 0] SC
1 w
2 J
0 j
[] 0 d
Q
q
[1 0 0 1 0.5 0.5] cm
/DeviceRGB {} cs
[0 0 0] sc
[0 0 0] sc
[0 0 0] SC
1 w
2 J
0 j
[] 0 d
Q
q
/DeviceRGB {} cs
[0 0 0] sc
[1 1 1] sc
q
[1 0 0 1 0.5 0.5] cm
140 30 40 20 re
f
Q
Q
q
[1 0 0 1 0.5 0.5] cm
[0 0 0] SC
1 w
0 J
0 j
[] 0 d
140 30 40 20 re
S
/DeviceRGB {} cs
[0 0 0] sc
[0 0 0] sc
[0 0 0] SC
1 w
2 J
0 j
[] 0 d
Q
q
/DeviceRGB {} cs
[0 0 0] sc
[0 0 0] sc
[0 0 0] SC
1 w
2 J
0 j
[] 0 d
Q
q
[1 0 0 1 0.5 0.5] cm
/DeviceRGB {} cs
[0 0 0] sc
[0 0 0] sc
[0 0 0] SC
1 w
2 J
0 j
[] 0 d
Q
q
/DeviceRGB {} cs
[0 0 0] sc
[1 1 1] sc
q
[1 0 0 1 0.5 0.5] cm
160 30 20 20 re
f
Q
Q
q
[1 0 0 1 0.5 0.5] cm
[0 0 0] SC
1 w
0 J
0 j
[] 0 d
160 30 20 20 re
S
/DeviceRGB {} cs
[0 0 0] sc
[0 0 0] sc
[0 0 0] SC
1 w
2 J
0 j
[] 0 d
Q
q
/DeviceRGB {} cs
[0 0 0] sc
[0 0 0] sc
[0 0 0] SC
1 w
2 J
0 j
[] 0 d
Q
q
[1 0 0 1 0.5 0.5] cm
/DeviceRGB {} cs
[0 0 0] sc
[0 0 0] sc
[0 0 0] SC
1 w
2 J
0 j
[] 0 d
Q
q
/DeviceRGB {} cs
[0 0 0] sc
[0 0 0] sc
[0 0 0] SC
1 w
2 J
0 j
[] 0 d
Q
q
[1 0 0 1 146 34] cm
/DeviceRGB {} cs
[0 0 0] sc
[0 0 0] sc
[0 0 0] SC
1 w
2 J
0 j
[] 0 d
[0 0 0] SC
0 w
2 J
2 j
[] 0 d
q
/DeviceRGB {} cs
[0 0 0] sc
[0 0 0] sc
Q
Q
q
/DeviceRGB {} cs
[0 0 0] sc
[0 0 0] sc
153.27539 35.75 m
153.27539 36.669922 l
153.005859 36.931641 152.64746 37.386719 152.200195 38.035156 c
151.752929 38.683594 151.357421 39.382813 151.013671 40.132813 c
150.673828 40.863281 150.416015 41.529297 150.240234 42.130859 c
150.126953 42.517578 149.980468 43.140625 149.800781 44 c
148.634765 44 l
148.90039 42.398438 149.486328 40.804687 150.392578 39.21875 c
150.927734 38.289063 151.490234 37.486328 152.080078 36.810547 c
147.439453 36.810547 l
147.439453 35.75 l
153.27539 35.75 l
h
f
Q
q
[1 0 0 1 146 34] cm
/DeviceRGB {} cs
[0 0 0] sc
[0 0 0] sc
[0 0 0] SC
0 w
2 J
2 j
[] 0 d
q
Q
[0 0 0] SC
1 w
2 J
0 j
[] 0 d
Q
q
/DeviceRGB {} cs
[0 0 0] sc
[0 0 0] sc
[0 0 0] SC
1 w
2 J
0 j
[] 0 d
Q
q
[1 0 0 1 0.5 0.5] cm
/DeviceRGB {} cs
[0 0 0] sc
[0 0 0] sc
[0 0 0] SC
1 w
2 J
0 j
[] 0 d
Q
q
/DeviceRGB {} cs
[0 0 0] sc
[0 0 0] sc
175.5 40.5 m
175.5 43.261424 173.261423 45.5 170.5 45.5 c
167.738576 45.5 165.5 43.261424 165.5 40.5 c
165.5 37.738576 167.738576 35.5 170.5 35.5 c
173.261423 35.5 175.5 37.738576 175.5 40.5 c
h
f
Q
q
[1 0 0 1 0.5 0.5] cm
[0 0 0] SC
1 w
0 J
0 j
[] 0 d
175 40 m
175 42.761424 172.761423 45 170 45 c
167.238576 45 165 42.761424 165 40 c
165 37.238576 167.238576 35 170 35 c
172.761423 35 175 37.238576 175 40 c
h
S
/DeviceRGB {} cs
[0 0 0] sc
[0 0 0] sc
[0 0 0] SC
1 w
2 J
0 j
[] 0 d
Q
q
/DeviceRGB {} cs
[0 0 0] sc
[0 0 0] sc
[0 0 0] SC
1 w
2 J
0 j
[] 0 d
Q
q
[1 0 0 1 0.5 0.5] cm
/DeviceRGB {} cs
[0 0 0] sc
[0 0 0] sc
[0 0 0] SC
1 w
2 J
0 j
[] 0 d
Q
q
/DeviceRGB {} cs
[0 0 0] sc
[1 1 1] sc
q
[1 0 0 1 0.5 0.5] cm
220 30 40 20 re
f
Q
Q
q
[1 0 0 1 0.5 0.5] cm
[0 0 0] SC
1 w
0 J
0 j
[] 0 d
220 30 40 20 re
S
/DeviceRGB {} cs
[0 0 0] sc
[0 0 0] sc
[0 0 0] SC
1 w
2 J
0 j
[] 0 d
Q
q
/DeviceRGB {} cs
[0 0 0] sc
[0 0 0] sc
[0 0 0] SC
1 w
2 J
0 j
[] 0 d
Q
q
[1 0 0 1 0.5 0.5] cm
/DeviceRGB {} cs
[0 0 0] sc
[0 0 0] sc
[0 0 0] SC
1 w
2 J
0 j
[] 0 d
Q
q
/DeviceRGB {} cs
[0 0 0] sc
[1 1 1] sc
q
[1 0 0 1 0.5 0.5] cm
240 30 20 20 re
f
Q
Q
q
[1 0 0 1 0.5 0.5] cm
[0 0 0] SC
1 w
0 J
0 j
[] 0 d
240 30 20 20 re
S
/DeviceRGB {} cs
[0 0 0] sc
[0 0 0] sc
[0 0 0] SC
1 w
2 J
0 j
[] 0 d
Q
q
/DeviceRGB {} cs
[0 0 0] sc
[0 0 0] sc
[0 0 0] SC
1 w
2 J
0 j
[] 0 d
Q
q
[1 0 0 1 0.5 0.5] cm
/DeviceRGB {} cs
[0 0 0] sc
[0 0 0] sc
[0 0 0] SC
1 w
2 J
0 j
[] 0 d
Q
q
/DeviceRGB {} cs
[0 0 0] sc
[0 0 0] sc
[0 0 0] SC
1 w
2 J
0 j
[] 0 d
Q
q
[1 0 0 1 226 34] cm
/DeviceRGB {} cs
[0 0 0] sc
[0 0 0] sc
[0 0 0] SC
1 w
2 J
0 j
[] 0 d
[0 0 0] SC
0 w
2 J
2 j
[] 0 d
q
/DeviceRGB {} cs
[0 0 0] sc
[0 0 0] sc
Q
Q
q
/DeviceRGB {} cs
[0 0 0] sc
[0 0 0] sc
228.148437 38.058594 m
228.148437 37.25 l
228.910156 37.175781 229.441406 37.051758 229.742187 36.87793 c
230.042968 36.704102 230.267578 36.292969 230.416015 35.644531 c
231.248046 35.644531 l
231.248046 44 l
230.123046 44 l
230.123046 38.058594 l
228.148437 38.058594 l
h
f
Q
q
[1 0 0 1 226 34] cm
/DeviceRGB {} cs
[0 0 0] sc
[0 0 0] sc
[0 0 0] SC
0 w
2 J
2 j
[] 0 d
q
Q
[0 0 0] SC
1 w
2 J
0 j
[] 0 d
Q
q
/DeviceRGB {} cs
[0 0 0] sc
[0 0 0] sc
[0 0 0] SC
1 w
2 J
0 j
[] 0 d
Q
q
[1 0 0 1 0.5 0.5] cm
/DeviceRGB {} cs
[0 0 0] sc
[0 0 0] sc
[0 0 0] SC
1 w
2 J
0 j
[] 0 d
Q
q
/DeviceRGB {} cs
[0 0 0] sc
[0 0 0] sc
255.5 40.5 m
255.5 43.261424 253.261423 45.5 250.5 45.5 c
247.738576 45.5 245.5 43.261424 245.5 40.5 c
245.5 37.738576 247.738576 35.5 250.5 35.5 c
253.261423 35.5 255.5 37.738576 255.5 40.5 c
h
f
Q
q
[1 0 0 1 0.5 0.5] cm
[0 0 0] SC
1 w
0 J
0 j
[] 0 d
255 40 m
255 42.761424 252.761423 45 250 45 c
247.238576 45 245 42.761424 245 40 c
245 37.238576 247.238576 35 250 35 c
252.761423 35 255 37.238576 255 40 c
h
S
/DeviceRGB {} cs
[0 0 0] sc
[0 0 0] sc
[0 0 0] SC
1 w
2 J
0 j
[] 0 d
Q
q
/DeviceRGB {} cs
[0 0 0] sc
[0 0 0] sc
[0 0 0] SC
1 w
2 J
0 j
[] 0 d
Q
q
[1 0 0 1 0.5 0.5] cm
/DeviceRGB {} cs
[0 0 0] sc
[0 0 0] sc
[0 0 0] SC
1 w
2 J
0 j
[] 0 d
[0 0 0] SC
1 w
0 J
0 j
[] 0 d
95 40 m
133.630004 40 l
S
/DeviceRGB {} cs
[0 0 0] sc
[0 0 0] sc
[0 0 0] SC
1 w
2 J
0 j
[] 0 d
Q
q
/DeviceRGB {} cs
[0 0 0] sc
[0 0 0] sc
139.380004 40.5 m
132.380004 44 l
134.130004 40.5 l
132.380004 37 l
139.380004 40.5 l
h
f
Q
q
[1 0 0 1 0.5 0.5] cm
[0 0 0] SC
1 w
0 J
0 j
[] 0 d
138.880004 40 m
131.880004 43.5 l
133.630004 40 l
131.880004 36.5 l
138.880004 40 l
h
S
/DeviceRGB {} cs
[0 0 0] sc
[0 0 0] sc
[0 0 0] SC
1 w
2 J
0 j
[] 0 d
Q
q
/DeviceRGB {} cs
[0 0 0] sc
[0 0 0] sc
[0 0 0] SC
1 w
2 J
0 j
[] 0 d
Q
q
[1 0 0 1 0.5 0.5] cm
/DeviceRGB {} cs
[0 0 0] sc
[0 0 0] sc
[0 0 0] SC
1 w
2 J
0 j
[] 0 d
[0 0 0] SC
1 w
0 J
0 j
[] 0 d
170 40 m
213.630004 40 l
S
/DeviceRGB {} cs
[0 0 0] sc
[0 0 0] sc
[0 0 0] SC
1 w
2 J
0 j
[] 0 d
Q
q
/DeviceRGB {} cs
[0 0 0] sc
[0 0 0] sc
219.380004 40.5 m
212.380004 44 l
214.130004 40.5 l
212.380004 37 l
219.380004 40.5 l
h
f
Q
q
[1 0 0 1 0.5 0.5] cm
[0 0 0] SC
1 w
0 J
0 j
[] 0 d
218.880004 40 m
211.880004 43.5 l
213.630004 40 l
211.880004 36.5 l
218.880004 40 l
h
S
/DeviceRGB {} cs
[0 0 0] sc
[0 0 0] sc
[0 0 0] SC
1 w
2 J
0 j
[] 0 d
Q
q
/DeviceRGB {} cs
[0 0 0] sc
[0 0 0] sc
[0 0 0] SC
1 w
2 J
0 j
[] 0 d
Q
q
[1 0 0 1 0.5 0.5] cm
/DeviceRGB {} cs
[0 0 0] sc
[0 0 0] sc
[0 0 0] SC
1 w
2 J
0 j
[] 0 d
Q
q
/DeviceRGB {} cs
[0 0 0] sc
[1 1 1] sc
q
[1 0 0 1 0.5 0.5] cm
20 0 20 20 re
f
Q
Q
q
[1 0 0 1 0.5 0.5] cm
[0 0 0] SC
1 w
0 J
0 j
[] 0 d
20 0 20 20 re
S
/DeviceRGB {} cs
[0 0 0] sc
[0 0 0] sc
[0 0 0] SC
1 w
2 J
0 j
[] 0 d
Q
q
/DeviceRGB {} cs
[0 0 0] sc
[0 0 0] sc
[0 0 0] SC
1 w
2 J
0 j
[] 0 d
Q
q
[1 0 0 1 0.5 0.5] cm
/DeviceRGB {} cs
[0 0 0] sc
[0 0 0] sc
[0 0 0] SC
1 w
2 J
0 j
[] 0 d
[0 0 0] SC
1 w
0 J
0 j
[] 0 d
30 15 m
30 30 l
30 36.666668 33.333336 40 40 40 c
53.630001 40 l
S
/DeviceRGB {} cs
[0 0 0] sc
[0 0 0] sc
[0 0 0] SC
1 w
2 J
0 j
[] 0 d
Q
q
/DeviceRGB {} cs
[0 0 0] sc
[0 0 0] sc
59.380001 40.5 m
52.380001 44 l
54.130001 40.5 l
52.380001 37 l
59.380001 40.5 l
h
f
Q
q
[1 0 0 1 0.5 0.5] cm
[0 0 0] SC
1 w
0 J
0 j
[] 0 d
58.880001 40 m
51.880001 43.5 l
53.630001 40 l
51.880001 36.5 l
58.880001 40 l
h
S
/DeviceRGB {} cs
[0 0 0] sc
[0 0 0] sc
[0 0 0] SC
1 w
2 J
0 j
[] 0 d
Q
q
/DeviceRGB {} cs
[0 0 0] sc
[0 0 0] sc
[0 0 0] SC
1 w
2 J
0 j
[] 0 d
Q
q
[1 0 0 1 0.5 0.5] cm
/DeviceRGB {} cs
[0 0 0] sc
[0 0 0] sc
[0 0 0] SC
1 w
2 J
0 j
[] 0 d
Q
q
/DeviceRGB {} cs
[0 0 0] sc
[0 0 0] sc
95.5 40.5 m
95.5 43.261424 93.261424 45.5 90.5 45.5 c
87.738576 45.5 85.5 43.261424 85.5 40.5 c
85.5 37.738576 87.738576 35.5 90.5 35.5 c
93.261424 35.5 95.5 37.738576 95.5 40.5 c
h
f
Q
q
[1 0 0 1 0.5 0.5] cm
[0 0 0] SC
1 w
0 J
0 j
[] 0 d
95 40 m
95 42.761424 92.761424 45 90 45 c
87.238576 45 85 42.761424 85 40 c
85 37.238576 87.238576 35 90 35 c
92.761424 35 95 37.238576 95 40 c
h
S
/DeviceRGB {} cs
[0 0 0] sc
[0 0 0] sc
[0 0 0] SC
1 w
2 J
0 j
[] 0 d
Q
q
/DeviceRGB {} cs
[0 0 0] sc
[0 0 0] sc
[0 0 0] SC
1 w
2 J
0 j
[] 0 d
Q
q
[1 0 0 1 0.5 0.5] cm
/DeviceRGB {} cs
[0 0 0] sc
[0 0 0] sc
[0 0 0] SC
1 w
2 J
0 j
[] 0 d
Q
q
/DeviceRGB {} cs
[0 0 0] sc
[0 0 0] sc
35.5 10.5 m
35.5 13.261424 33.261424 15.5 30.5 15.5 c
27.738576 15.5 25.5 13.261424 25.5 10.5 c
25.5 7.738576 27.738576 5.5 30.5 5.5 c
33.261424 5.5 35.5 7.738576 35.5 10.5 c
h
f
Q
q
[1 0 0 1 0.5 0.5] cm
[0 0 0] SC
1 w
0 J
0 j
[] 0 d
35 10 m
35 12.761424 32.761424 15 30 15 c
27.238576 15 25 12.761424 25 10 c
25 7.238576 27.238576 5 30 5 c
32.761424 5 35 7.238576 35 10 c
h
S
/DeviceRGB {} cs
[0 0 0] sc
[0 0 0] sc
[0 0 0] SC
1 w
2 J
0 j
[] 0 d
Q
q
/DeviceRGB {} cs
[0 0 0] sc
[0 0 0] sc
[0 0 0] SC
1 w
2 J
0 j
[] 0 d
Q
Q
q
q
/DeviceRGB {} cs
[0 0 0] sc
[0 0 0] sc
[0 0 0] SC
1 w
2 J
0 j
[] 0 d
Q
Q
q
0 0 262 62 re
W*
q
/DeviceRGB {} cs
[0 0 0] sc
[0 0 0] sc
[0 0 0] SC
1 w
2 J
0 j
[] 0 d
Q
q
/DeviceRGB {} cs
[0 0 0] sc
[0 0 0] sc
[0 0 0] SC
1 w
2 J
0 j
[] 0 d
Q
Q
q
0 0 262 62 re
W*
0 0 262 62 re
W*
q
/DeviceRGB {} cs
[0 0 0] sc
[0 0 0] sc
[0 0 0] SC
1 w
2 J
0 j
[] 0 d
Q
Q
q
q
/DeviceRGB {} cs
[0 0 0] sc
[0 0 0] sc
[0 0 0] SC
1 w
2 J
0 j
[] 0 d
Q
Q
q
0 0 262 62 re
W*
q
/DeviceRGB {} cs
[0 0 0] sc
[0 0 0] sc
[0 0 0] SC
1 w
2 J
0 j
[] 0 d
Q
q
/DeviceRGB {} cs
[0 0 0] sc
[0 0 0] sc
[0 0 0] SC
1 w
2 J
0 j
[] 0 d
Q
Q
q
q
/DeviceRGB {} cs
[0 0 0] sc
[0 0 0] sc
[0 0 0] SC
1 w
2 J
0 j
[] 0 d
Q
Q
Q
showpage
%%PageTrailer
pdfEndPage
%%Trailer
end
%%DocumentSuppliedResources:
%%EOF
