%!PS-Adobe-3.0
%Produced by poppler pdftops version: 0.26.5 (http://poppler.freedesktop.org)
%%Creator: 
%%LanguageLevel: 2
%%DocumentSuppliedResources: (atend)
%%DocumentMedia: 148x81mm 422 232 0 () ()
%%BoundingBox: 0 0 422 232
%%Pages: 1
%%EndComments
%%BeginProlog
%%BeginResource: procset xpdf 3.00 0
%%Copyright: Copyright 1996-2011 Glyph & Cog, LLC
/xpdf 75 dict def xpdf begin
% PDF special state
/pdfDictSize 15 def
/pdfSetup {
  /setpagedevice where {
    pop 2 dict begin
      /Policies 1 dict dup begin /PageSize 6 def end def
      { /Duplex true def } if
    currentdict end setpagedevice
  } {
    pop
  } ifelse
} def
/pdfSetupPaper {
  % Change paper size, but only if different from previous paper size otherwise
  % duplex fails. PLRM specifies a tolerance of 5 pts when matching paper size
  % so we use the same when checking if the size changes.
  /setpagedevice where {
    pop currentpagedevice
    /PageSize known {
      2 copy
      currentpagedevice /PageSize get aload pop
      exch 4 1 roll
      sub abs 5 gt
      3 1 roll
      sub abs 5 gt
      or
    } {
      true
    } ifelse
    {
      2 array astore
      2 dict begin
        /PageSize exch def
        /ImagingBBox null def
      currentdict end
      setpagedevice
    } {
      pop pop
    } ifelse
  } {
    pop
  } ifelse
} def
/pdfStartPage {
  pdfDictSize dict begin
  /pdfFillCS [] def
  /pdfFillXform {} def
  /pdfStrokeCS [] def
  /pdfStrokeXform {} def
  /pdfFill [0] def
  /pdfStroke [0] def
  /pdfFillOP false def
  /pdfStrokeOP false def
  /pdfLastFill false def
  /pdfLastStroke false def
  /pdfTextMat [1 0 0 1 0 0] def
  /pdfFontSize 0 def
  /pdfCharSpacing 0 def
  /pdfTextRender 0 def
  /pdfPatternCS false def
  /pdfTextRise 0 def
  /pdfWordSpacing 0 def
  /pdfHorizScaling 1 def
  /pdfTextClipPath [] def
} def
/pdfEndPage { end } def
% PDF color state
/cs { /pdfFillXform exch def dup /pdfFillCS exch def
      setcolorspace } def
/CS { /pdfStrokeXform exch def dup /pdfStrokeCS exch def
      setcolorspace } def
/sc { pdfLastFill not { pdfFillCS setcolorspace } if
      dup /pdfFill exch def aload pop pdfFillXform setcolor
     /pdfLastFill true def /pdfLastStroke false def } def
/SC { pdfLastStroke not { pdfStrokeCS setcolorspace } if
      dup /pdfStroke exch def aload pop pdfStrokeXform setcolor
     /pdfLastStroke true def /pdfLastFill false def } def
/op { /pdfFillOP exch def
      pdfLastFill { pdfFillOP setoverprint } if } def
/OP { /pdfStrokeOP exch def
      pdfLastStroke { pdfStrokeOP setoverprint } if } def
/fCol {
  pdfLastFill not {
    pdfFillCS setcolorspace
    pdfFill aload pop pdfFillXform setcolor
    pdfFillOP setoverprint
    /pdfLastFill true def /pdfLastStroke false def
  } if
} def
/sCol {
  pdfLastStroke not {
    pdfStrokeCS setcolorspace
    pdfStroke aload pop pdfStrokeXform setcolor
    pdfStrokeOP setoverprint
    /pdfLastStroke true def /pdfLastFill false def
  } if
} def
% build a font
/pdfMakeFont {
  4 3 roll findfont
  4 2 roll matrix scale makefont
  dup length dict begin
    { 1 index /FID ne { def } { pop pop } ifelse } forall
    /Encoding exch def
    currentdict
  end
  definefont pop
} def
/pdfMakeFont16 {
  exch findfont
  dup length dict begin
    { 1 index /FID ne { def } { pop pop } ifelse } forall
    /WMode exch def
    currentdict
  end
  definefont pop
} def
% graphics state operators
/q { gsave pdfDictSize dict begin } def
/Q {
  end grestore
  /pdfLastFill where {
    pop
    pdfLastFill {
      pdfFillOP setoverprint
    } {
      pdfStrokeOP setoverprint
    } ifelse
  } if
} def
/cm { concat } def
/d { setdash } def
/i { setflat } def
/j { setlinejoin } def
/J { setlinecap } def
/M { setmiterlimit } def
/w { setlinewidth } def
% path segment operators
/m { moveto } def
/l { lineto } def
/c { curveto } def
/re { 4 2 roll moveto 1 index 0 rlineto 0 exch rlineto
      neg 0 rlineto closepath } def
/h { closepath } def
% path painting operators
/S { sCol stroke } def
/Sf { fCol stroke } def
/f { fCol fill } def
/f* { fCol eofill } def
% clipping operators
/W { clip newpath } def
/W* { eoclip newpath } def
/Ws { strokepath clip newpath } def
% text state operators
/Tc { /pdfCharSpacing exch def } def
/Tf { dup /pdfFontSize exch def
      dup pdfHorizScaling mul exch matrix scale
      pdfTextMat matrix concatmatrix dup 4 0 put dup 5 0 put
      exch findfont exch makefont setfont } def
/Tr { /pdfTextRender exch def } def
/Tp { /pdfPatternCS exch def } def
/Ts { /pdfTextRise exch def } def
/Tw { /pdfWordSpacing exch def } def
/Tz { /pdfHorizScaling exch def } def
% text positioning operators
/Td { pdfTextMat transform moveto } def
/Tm { /pdfTextMat exch def } def
% text string operators
/xyshow where {
  pop
  /xyshow2 {
    dup length array
    0 2 2 index length 1 sub {
      2 index 1 index 2 copy get 3 1 roll 1 add get
      pdfTextMat dtransform
      4 2 roll 2 copy 6 5 roll put 1 add 3 1 roll dup 4 2 roll put
    } for
    exch pop
    xyshow
  } def
}{
  /xyshow2 {
    currentfont /FontType get 0 eq {
      0 2 3 index length 1 sub {
        currentpoint 4 index 3 index 2 getinterval show moveto
        2 copy get 2 index 3 2 roll 1 add get
        pdfTextMat dtransform rmoveto
      } for
    } {
      0 1 3 index length 1 sub {
        currentpoint 4 index 3 index 1 getinterval show moveto
        2 copy 2 mul get 2 index 3 2 roll 2 mul 1 add get
        pdfTextMat dtransform rmoveto
      } for
    } ifelse
    pop pop
  } def
} ifelse
/cshow where {
  pop
  /xycp {
    0 3 2 roll
    {
      pop pop currentpoint 3 2 roll
      1 string dup 0 4 3 roll put false charpath moveto
      2 copy get 2 index 2 index 1 add get
      pdfTextMat dtransform rmoveto
      2 add
    } exch cshow
    pop pop
  } def
}{
  /xycp {
    currentfont /FontType get 0 eq {
      0 2 3 index length 1 sub {
        currentpoint 4 index 3 index 2 getinterval false charpath moveto
        2 copy get 2 index 3 2 roll 1 add get
        pdfTextMat dtransform rmoveto
      } for
    } {
      0 1 3 index length 1 sub {
        currentpoint 4 index 3 index 1 getinterval false charpath moveto
        2 copy 2 mul get 2 index 3 2 roll 2 mul 1 add get
        pdfTextMat dtransform rmoveto
      } for
    } ifelse
    pop pop
  } def
} ifelse
/Tj {
  fCol
  0 pdfTextRise pdfTextMat dtransform rmoveto
  currentpoint 4 2 roll
  pdfTextRender 1 and 0 eq {
    2 copy xyshow2
  } if
  pdfTextRender 3 and dup 1 eq exch 2 eq or {
    3 index 3 index moveto
    2 copy
    currentfont /FontType get 3 eq { fCol } { sCol } ifelse
    xycp currentpoint stroke moveto
  } if
  pdfTextRender 4 and 0 ne {
    4 2 roll moveto xycp
    /pdfTextClipPath [ pdfTextClipPath aload pop
      {/moveto cvx}
      {/lineto cvx}
      {/curveto cvx}
      {/closepath cvx}
    pathforall ] def
    currentpoint newpath moveto
  } {
    pop pop pop pop
  } ifelse
  0 pdfTextRise neg pdfTextMat dtransform rmoveto
} def
/TJm { 0.001 mul pdfFontSize mul pdfHorizScaling mul neg 0
       pdfTextMat dtransform rmoveto } def
/TJmV { 0.001 mul pdfFontSize mul neg 0 exch
        pdfTextMat dtransform rmoveto } def
/Tclip { pdfTextClipPath cvx exec clip newpath
         /pdfTextClipPath [] def } def
/Tclip* { pdfTextClipPath cvx exec eoclip newpath
         /pdfTextClipPath [] def } def
% Level 2/3 image operators
/pdfImBuf 100 string def
/pdfImStr {
  2 copy exch length lt {
    2 copy get exch 1 add exch
  } {
    ()
  } ifelse
} def
/skipEOD {
  { currentfile pdfImBuf readline
    not { pop exit } if
    (%-EOD-) eq { exit } if } loop
} def
/pdfIm { image skipEOD } def
/pdfImM { fCol imagemask skipEOD } def
/pr { 2 index 2 index 3 2 roll putinterval 4 add } def
/pdfImClip {
  gsave
  0 2 4 index length 1 sub {
    dup 4 index exch 2 copy
    get 5 index div put
    1 add 3 index exch 2 copy
    get 3 index div put
  } for
  pop pop rectclip
} def
/pdfImClipEnd { grestore } def
% shading operators
/colordelta {
  false 0 1 3 index length 1 sub {
    dup 4 index exch get 3 index 3 2 roll get sub abs 0.004 gt {
      pop true
    } if
  } for
  exch pop exch pop
} def
/funcCol { func n array astore } def
/funcSH {
  dup 0 eq {
    true
  } {
    dup 6 eq {
      false
    } {
      4 index 4 index funcCol dup
      6 index 4 index funcCol dup
      3 1 roll colordelta 3 1 roll
      5 index 5 index funcCol dup
      3 1 roll colordelta 3 1 roll
      6 index 8 index funcCol dup
      3 1 roll colordelta 3 1 roll
      colordelta or or or
    } ifelse
  } ifelse
  {
    1 add
    4 index 3 index add 0.5 mul exch 4 index 3 index add 0.5 mul exch
    6 index 6 index 4 index 4 index 4 index funcSH
    2 index 6 index 6 index 4 index 4 index funcSH
    6 index 2 index 4 index 6 index 4 index funcSH
    5 3 roll 3 2 roll funcSH pop pop
  } {
    pop 3 index 2 index add 0.5 mul 3 index  2 index add 0.5 mul
    funcCol sc
    dup 4 index exch mat transform m
    3 index 3 index mat transform l
    1 index 3 index mat transform l
    mat transform l pop pop h f*
  } ifelse
} def
/axialCol {
  dup 0 lt {
    pop t0
  } {
    dup 1 gt {
      pop t1
    } {
      dt mul t0 add
    } ifelse
  } ifelse
  func n array astore
} def
/axialSH {
  dup 0 eq {
    true
  } {
    dup 8 eq {
      false
    } {
      2 index axialCol 2 index axialCol colordelta
    } ifelse
  } ifelse
  {
    1 add 3 1 roll 2 copy add 0.5 mul
    dup 4 3 roll exch 4 index axialSH
    exch 3 2 roll axialSH
  } {
    pop 2 copy add 0.5 mul
    axialCol sc
    exch dup dx mul x0 add exch dy mul y0 add
    3 2 roll dup dx mul x0 add exch dy mul y0 add
    dx abs dy abs ge {
      2 copy yMin sub dy mul dx div add yMin m
      yMax sub dy mul dx div add yMax l
      2 copy yMax sub dy mul dx div add yMax l
      yMin sub dy mul dx div add yMin l
      h f*
    } {
      exch 2 copy xMin sub dx mul dy div add xMin exch m
      xMax sub dx mul dy div add xMax exch l
      exch 2 copy xMax sub dx mul dy div add xMax exch l
      xMin sub dx mul dy div add xMin exch l
      h f*
    } ifelse
  } ifelse
} def
/radialCol {
  dup t0 lt {
    pop t0
  } {
    dup t1 gt {
      pop t1
    } if
  } ifelse
  func n array astore
} def
/radialSH {
  dup 0 eq {
    true
  } {
    dup 8 eq {
      false
    } {
      2 index dt mul t0 add radialCol
      2 index dt mul t0 add radialCol colordelta
    } ifelse
  } ifelse
  {
    1 add 3 1 roll 2 copy add 0.5 mul
    dup 4 3 roll exch 4 index radialSH
    exch 3 2 roll radialSH
  } {
    pop 2 copy add 0.5 mul dt mul t0 add
    radialCol sc
    encl {
      exch dup dx mul x0 add exch dup dy mul y0 add exch dr mul r0 add
      0 360 arc h
      dup dx mul x0 add exch dup dy mul y0 add exch dr mul r0 add
      360 0 arcn h f
    } {
      2 copy
      dup dx mul x0 add exch dup dy mul y0 add exch dr mul r0 add
      a1 a2 arcn
      dup dx mul x0 add exch dup dy mul y0 add exch dr mul r0 add
      a2 a1 arcn h
      dup dx mul x0 add exch dup dy mul y0 add exch dr mul r0 add
      a1 a2 arc
      dup dx mul x0 add exch dup dy mul y0 add exch dr mul r0 add
      a2 a1 arc h f
    } ifelse
  } ifelse
} def
end
%%EndResource
%%EndProlog
%%BeginSetup
xpdf begin
false pdfSetup
%%EndSetup
%%Page: 1 1
%%PageMedia: 148x81mm
%%PageBoundingBox: 0 0 422 232
%%PageOrientation: Portrait
%%BeginPageSetup
422 232 pdfSetupPaper
pdfStartPage
0 0 422 232 re W
%%EndPageSetup
[] 0 d
1 i
0 j
0 J
10 M
1 w
/DeviceGray {} cs
[0] sc
/DeviceGray {} CS
[0] SC
false op
false OP
{} settransfer
q
/DeviceRGB {} cs
[0 0 0] sc
/DeviceRGB {} CS
[0 0 0] SC
[1 0 0 -1 0 232] cm
q
q
Q
Q
q
q
Q
q
/DeviceRGB {} cs
[0 0 0] sc
[0 0 0] sc
[0 0 0] SC
1 w
2 J
0 j
[] 0 d
Q
Q
q
0 0 422 232 re
W*
q
/DeviceRGB {} cs
[0 0 0] sc
[0 0 0] sc
[0 0 0] SC
1 w
2 J
0 j
[] 0 d
Q
q
/DeviceRGB {} cs
[0 0 0] sc
[1 1 1] sc
0 0 422 232 re
f
Q
q
/DeviceRGB {} cs
[0 0 0] sc
[0 0 0] sc
[0 0 0] SC
1 w
2 J
0 j
[] 0 d
Q
Q
q
0 0 422 232 re
W*
0 0 422 232 re
W*
q
/DeviceRGB {} cs
[0 0 0] sc
[0 0 0] sc
[0 0 0] SC
1 w
2 J
0 j
[] 0 d
Q
q
[1 0 0 1 0.5 0.5] cm
/DeviceRGB {} cs
[0 0 0] sc
[0 0 0] sc
[0 0 0] SC
1 w
2 J
0 j
[] 0 d
Q
q
/DeviceRGB {} cs
[0 0 0] sc
[1 1 1] sc
q
[1 0 0 1 0.5 0.5] cm
60 90 40 20 re
f
Q
Q
q
[1 0 0 1 0.5 0.5] cm
[0 0 0] SC
1 w
0 J
0 j
[] 0 d
60 90 40 20 re
S
/DeviceRGB {} cs
[0 0 0] sc
[0 0 0] sc
[0 0 0] SC
1 w
2 J
0 j
[] 0 d
Q
q
/DeviceRGB {} cs
[0 0 0] sc
[0 0 0] sc
[0 0 0] SC
1 w
2 J
0 j
[] 0 d
Q
q
[1 0 0 1 0.5 0.5] cm
/DeviceRGB {} cs
[0 0 0] sc
[0 0 0] sc
[0 0 0] SC
1 w
2 J
0 j
[] 0 d
Q
q
/DeviceRGB {} cs
[0 0 0] sc
[1 1 1] sc
q
[1 0 0 1 0.5 0.5] cm
80 90 20 20 re
f
Q
Q
q
[1 0 0 1 0.5 0.5] cm
[0 0 0] SC
1 w
0 J
0 j
[] 0 d
80 90 20 20 re
S
/DeviceRGB {} cs
[0 0 0] sc
[0 0 0] sc
[0 0 0] SC
1 w
2 J
0 j
[] 0 d
Q
q
/DeviceRGB {} cs
[0 0 0] sc
[0 0 0] sc
[0 0 0] SC
1 w
2 J
0 j
[] 0 d
Q
q
[1 0 0 1 0.5 0.5] cm
/DeviceRGB {} cs
[0 0 0] sc
[0 0 0] sc
[0 0 0] SC
1 w
2 J
0 j
[] 0 d
Q
q
/DeviceRGB {} cs
[0 0 0] sc
[0 0 0] sc
[0 0 0] SC
1 w
2 J
0 j
[] 0 d
Q
q
[1 0 0 1 66 94] cm
/DeviceRGB {} cs
[0 0 0] sc
[0 0 0] sc
[0 0 0] SC
1 w
2 J
0 j
[] 0 d
[0 0 0] SC
0 w
2 J
2 j
[] 0 d
q
/DeviceRGB {} cs
[0 0 0] sc
[0 0 0] sc
Q
Q
q
/DeviceRGB {} cs
[0 0 0] sc
[0 0 0] sc
72.601563 96.951172 m
72.976563 97.642578 73.164063 98.589844 73.164063 99.792969 c
73.164063 100.933593 72.994141 101.876953 72.654297 102.623046 c
72.162109 103.693359 71.357422 104.228515 70.240234 104.228515 c
69.232422 104.228515 68.482422 103.791015 67.990234 102.916015 c
67.580078 102.185546 67.375 101.205078 67.375 99.974609 c
67.375 99.021484 67.498047 98.203125 67.744141 97.519531 c
68.205078 96.246094 69.039063 95.609375 70.246094 95.609375 c
71.332031 95.609375 72.117188 96.056641 72.601563 96.951172 c
h
71.541016 102.541015 m
71.865234 102.05664 72.027344 101.154296 72.027344 99.833984 c
72.027344 98.880859 71.910156 98.09668 71.675781 97.481445 c
71.441406 96.866211 70.986328 96.558594 70.310547 96.558594 c
69.689453 96.558594 69.235352 96.850586 68.948242 97.43457 c
68.661133 98.018555 68.517578 98.878906 68.517578 100.015625 c
68.517578 100.871093 68.609375 101.558593 68.792969 102.078125 c
69.074219 102.871093 69.554688 103.267578 70.234375 103.267578 c
70.78125 103.267578 71.216797 103.02539 71.541016 102.541015 c
h
f
Q
q
[1 0 0 1 66 94] cm
/DeviceRGB {} cs
[0 0 0] sc
[0 0 0] sc
[0 0 0] SC
0 w
2 J
2 j
[] 0 d
q
Q
[0 0 0] SC
1 w
2 J
0 j
[] 0 d
Q
q
/DeviceRGB {} cs
[0 0 0] sc
[0 0 0] sc
[0 0 0] SC
1 w
2 J
0 j
[] 0 d
Q
q
[1 0 0 1 0.5 0.5] cm
/DeviceRGB {} cs
[0 0 0] sc
[0 0 0] sc
[0 0 0] SC
1 w
2 J
0 j
[] 0 d
Q
q
/DeviceRGB {} cs
[0 0 0] sc
[1 1 1] sc
q
[1 0 0 1 0.5 0.5] cm
140 90 40 20 re
f
Q
Q
q
[1 0 0 1 0.5 0.5] cm
[0 0 0] SC
1 w
0 J
0 j
[] 0 d
140 90 40 20 re
S
/DeviceRGB {} cs
[0 0 0] sc
[0 0 0] sc
[0 0 0] SC
1 w
2 J
0 j
[] 0 d
Q
q
/DeviceRGB {} cs
[0 0 0] sc
[0 0 0] sc
[0 0 0] SC
1 w
2 J
0 j
[] 0 d
Q
q
[1 0 0 1 0.5 0.5] cm
/DeviceRGB {} cs
[0 0 0] sc
[0 0 0] sc
[0 0 0] SC
1 w
2 J
0 j
[] 0 d
Q
q
/DeviceRGB {} cs
[0 0 0] sc
[1 1 1] sc
q
[1 0 0 1 0.5 0.5] cm
160 90 20 20 re
f
Q
Q
q
[1 0 0 1 0.5 0.5] cm
[0 0 0] SC
1 w
0 J
0 j
[] 0 d
160 90 20 20 re
S
/DeviceRGB {} cs
[0 0 0] sc
[0 0 0] sc
[0 0 0] SC
1 w
2 J
0 j
[] 0 d
Q
q
/DeviceRGB {} cs
[0 0 0] sc
[0 0 0] sc
[0 0 0] SC
1 w
2 J
0 j
[] 0 d
Q
q
[1 0 0 1 0.5 0.5] cm
/DeviceRGB {} cs
[0 0 0] sc
[0 0 0] sc
[0 0 0] SC
1 w
2 J
0 j
[] 0 d
Q
q
/DeviceRGB {} cs
[0 0 0] sc
[0 0 0] sc
[0 0 0] SC
1 w
2 J
0 j
[] 0 d
Q
q
[1 0 0 1 146 94] cm
/DeviceRGB {} cs
[0 0 0] sc
[0 0 0] sc
[0 0 0] SC
1 w
2 J
0 j
[] 0 d
[0 0 0] SC
0 w
2 J
2 j
[] 0 d
q
/DeviceRGB {} cs
[0 0 0] sc
[0 0 0] sc
Q
Q
q
/DeviceRGB {} cs
[0 0 0] sc
[0 0 0] sc
150.966796 101.029296 m
150.966796 97.226563 l
148.277343 101.029296 l
150.966796 101.029296 l
h
150.984375 104 m
150.984375 101.949218 l
147.304687 101.949218 l
147.304687 100.917968 l
151.148437 95.585937 l
152.039062 95.585937 l
152.039062 101.029296 l
153.27539 101.029296 l
153.27539 101.949218 l
152.039062 101.949218 l
152.039062 104 l
150.984375 104 l
h
f
Q
q
[1 0 0 1 146 94] cm
/DeviceRGB {} cs
[0 0 0] sc
[0 0 0] sc
[0 0 0] SC
0 w
2 J
2 j
[] 0 d
q
Q
[0 0 0] SC
1 w
2 J
0 j
[] 0 d
Q
q
/DeviceRGB {} cs
[0 0 0] sc
[0 0 0] sc
[0 0 0] SC
1 w
2 J
0 j
[] 0 d
Q
q
[1 0 0 1 0.5 0.5] cm
/DeviceRGB {} cs
[0 0 0] sc
[0 0 0] sc
[0 0 0] SC
1 w
2 J
0 j
[] 0 d
[0 0 0] SC
1 w
0 J
0 j
[] 0 d
95 100 m
133.630004 100 l
S
/DeviceRGB {} cs
[0 0 0] sc
[0 0 0] sc
[0 0 0] SC
1 w
2 J
0 j
[] 0 d
Q
q
/DeviceRGB {} cs
[0 0 0] sc
[0 0 0] sc
139.380004 100.5 m
132.380004 104 l
134.130004 100.5 l
132.380004 97 l
139.380004 100.5 l
h
f
Q
q
[1 0 0 1 0.5 0.5] cm
[0 0 0] SC
1 w
0 J
0 j
[] 0 d
138.880004 100 m
131.880004 103.5 l
133.630004 100 l
131.880004 96.5 l
138.880004 100 l
h
S
/DeviceRGB {} cs
[0 0 0] sc
[0 0 0] sc
[0 0 0] SC
1 w
2 J
0 j
[] 0 d
Q
q
/DeviceRGB {} cs
[0 0 0] sc
[0 0 0] sc
[0 0 0] SC
1 w
2 J
0 j
[] 0 d
Q
q
[1 0 0 1 0.5 0.5] cm
/DeviceRGB {} cs
[0 0 0] sc
[0 0 0] sc
[0 0 0] SC
1 w
2 J
0 j
[] 0 d
Q
q
/DeviceRGB {} cs
[0 0 0] sc
[1 1 1] sc
q
[1 0 0 1 0.5 0.5] cm
220 90 40 20 re
f
Q
Q
q
[1 0 0 1 0.5 0.5] cm
[0 0 0] SC
1 w
0 J
0 j
[] 0 d
220 90 40 20 re
S
/DeviceRGB {} cs
[0 0 0] sc
[0 0 0] sc
[0 0 0] SC
1 w
2 J
0 j
[] 0 d
Q
q
/DeviceRGB {} cs
[0 0 0] sc
[0 0 0] sc
[0 0 0] SC
1 w
2 J
0 j
[] 0 d
Q
q
[1 0 0 1 0.5 0.5] cm
/DeviceRGB {} cs
[0 0 0] sc
[0 0 0] sc
[0 0 0] SC
1 w
2 J
0 j
[] 0 d
Q
q
/DeviceRGB {} cs
[0 0 0] sc
[1 1 1] sc
q
[1 0 0 1 0.5 0.5] cm
240 90 20 20 re
f
Q
Q
q
[1 0 0 1 0.5 0.5] cm
[0 0 0] SC
1 w
0 J
0 j
[] 0 d
240 90 20 20 re
S
/DeviceRGB {} cs
[0 0 0] sc
[0 0 0] sc
[0 0 0] SC
1 w
2 J
0 j
[] 0 d
Q
q
/DeviceRGB {} cs
[0 0 0] sc
[0 0 0] sc
[0 0 0] SC
1 w
2 J
0 j
[] 0 d
Q
q
[1 0 0 1 0.5 0.5] cm
/DeviceRGB {} cs
[0 0 0] sc
[0 0 0] sc
[0 0 0] SC
1 w
2 J
0 j
[] 0 d
Q
q
/DeviceRGB {} cs
[0 0 0] sc
[0 0 0] sc
[0 0 0] SC
1 w
2 J
0 j
[] 0 d
Q
q
[1 0 0 1 226 94] cm
/DeviceRGB {} cs
[0 0 0] sc
[0 0 0] sc
[0 0 0] SC
1 w
2 J
0 j
[] 0 d
[0 0 0] SC
0 w
2 J
2 j
[] 0 d
q
/DeviceRGB {} cs
[0 0 0] sc
[0 0 0] sc
Q
Q
q
/DeviceRGB {} cs
[0 0 0] sc
[0 0 0] sc
227.823242 102.113281 m
228.083007 101.578125 228.589843 101.091796 229.34375 100.654296 c
230.46875 100.003906 l
230.972656 99.710938 231.326171 99.460938 231.529296 99.253906 c
231.849609 98.929688 232.009765 98.558594 232.009765 98.140625 c
232.009765 97.652344 231.863281 97.264648 231.570312 96.977539 c
231.277343 96.69043 230.886718 96.546875 230.398437 96.546875 c
229.675781 96.546875 229.175781 96.820312 228.898437 97.367188 c
228.75 97.660156 228.667968 98.066406 228.652343 98.585937 c
227.580078 98.585937 l
227.591796 97.855469 227.726562 97.259766 227.984375 96.798828 c
228.441406 95.986328 229.248046 95.580078 230.404296 95.580078 c
231.365234 95.580078 232.067382 95.839844 232.510742 96.359375 c
232.954101 96.878906 233.175781 97.457031 233.175781 98.09375 c
233.175781 98.765625 232.939453 99.339844 232.466796 99.816406 c
232.193359 100.09375 231.703125 100.429687 230.996093 100.824218 c
230.193359 101.269531 l
229.810546 101.480468 229.509765 101.68164 229.291015 101.873046 c
228.90039 102.21289 228.654296 102.589843 228.552734 103.003906 c
233.134765 103.003906 l
233.134765 104 l
227.375 104 l
227.414062 103.277343 227.563476 102.648437 227.823242 102.113281 c
h
f
Q
q
[1 0 0 1 226 94] cm
/DeviceRGB {} cs
[0 0 0] sc
[0 0 0] sc
[0 0 0] SC
0 w
2 J
2 j
[] 0 d
q
Q
[0 0 0] SC
1 w
2 J
0 j
[] 0 d
Q
q
/DeviceRGB {} cs
[0 0 0] sc
[0 0 0] sc
[0 0 0] SC
1 w
2 J
0 j
[] 0 d
Q
q
[1 0 0 1 0.5 0.5] cm
/DeviceRGB {} cs
[0 0 0] sc
[0 0 0] sc
[0 0 0] SC
1 w
2 J
0 j
[] 0 d
[0 0 0] SC
1 w
0 J
0 j
[] 0 d
175 100 m
213.630004 100 l
S
/DeviceRGB {} cs
[0 0 0] sc
[0 0 0] sc
[0 0 0] SC
1 w
2 J
0 j
[] 0 d
Q
q
/DeviceRGB {} cs
[0 0 0] sc
[0 0 0] sc
219.380004 100.5 m
212.380004 104 l
214.130004 100.5 l
212.380004 97 l
219.380004 100.5 l
h
f
Q
q
[1 0 0 1 0.5 0.5] cm
[0 0 0] SC
1 w
0 J
0 j
[] 0 d
218.880004 100 m
211.880004 103.5 l
213.630004 100 l
211.880004 96.5 l
218.880004 100 l
h
S
/DeviceRGB {} cs
[0 0 0] sc
[0 0 0] sc
[0 0 0] SC
1 w
2 J
0 j
[] 0 d
Q
q
/DeviceRGB {} cs
[0 0 0] sc
[0 0 0] sc
[0 0 0] SC
1 w
2 J
0 j
[] 0 d
Q
q
[1 0 0 1 0.5 0.5] cm
/DeviceRGB {} cs
[0 0 0] sc
[0 0 0] sc
[0 0 0] SC
1 w
2 J
0 j
[] 0 d
Q
q
/DeviceRGB {} cs
[0 0 0] sc
[0 0 0] sc
175.5 100.5 m
175.5 103.261423 173.261423 105.5 170.5 105.5 c
167.738576 105.5 165.5 103.261423 165.5 100.5 c
165.5 97.738576 167.738576 95.5 170.5 95.5 c
173.261423 95.5 175.5 97.738576 175.5 100.5 c
h
f
Q
q
[1 0 0 1 0.5 0.5] cm
[0 0 0] SC
1 w
0 J
0 j
[] 0 d
175 100 m
175 102.761423 172.761423 105 170 105 c
167.238576 105 165 102.761423 165 100 c
165 97.238576 167.238576 95 170 95 c
172.761423 95 175 97.238576 175 100 c
h
S
/DeviceRGB {} cs
[0 0 0] sc
[0 0 0] sc
[0 0 0] SC
1 w
2 J
0 j
[] 0 d
Q
q
/DeviceRGB {} cs
[0 0 0] sc
[0 0 0] sc
[0 0 0] SC
1 w
2 J
0 j
[] 0 d
Q
q
[1 0 0 1 0.5 0.5] cm
/DeviceRGB {} cs
[0 0 0] sc
[0 0 0] sc
[0 0 0] SC
1 w
2 J
0 j
[] 0 d
Q
q
/DeviceRGB {} cs
[0 0 0] sc
[1 1 1] sc
q
[1 0 0 1 0.5 0.5] cm
20 60 20 20 re
f
Q
Q
q
[1 0 0 1 0.5 0.5] cm
[0 0 0] SC
1 w
0 J
0 j
[] 0 d
20 60 20 20 re
S
/DeviceRGB {} cs
[0 0 0] sc
[0 0 0] sc
[0 0 0] SC
1 w
2 J
0 j
[] 0 d
Q
q
/DeviceRGB {} cs
[0 0 0] sc
[0 0 0] sc
[0 0 0] SC
1 w
2 J
0 j
[] 0 d
Q
q
[1 0 0 1 0.5 0.5] cm
/DeviceRGB {} cs
[0 0 0] sc
[0 0 0] sc
[0 0 0] SC
1 w
2 J
0 j
[] 0 d
Q
q
/DeviceRGB {} cs
[0 0 0] sc
[0 0 0] sc
35.5 70.5 m
35.5 73.261424 33.261424 75.5 30.5 75.5 c
27.738576 75.5 25.5 73.261424 25.5 70.5 c
25.5 67.738576 27.738576 65.5 30.5 65.5 c
33.261424 65.5 35.5 67.738576 35.5 70.5 c
h
f
Q
q
[1 0 0 1 0.5 0.5] cm
[0 0 0] SC
1 w
0 J
0 j
[] 0 d
35 70 m
35 72.761424 32.761424 75 30 75 c
27.238576 75 25 72.761424 25 70 c
25 67.238576 27.238576 65 30 65 c
32.761424 65 35 67.238576 35 70 c
h
S
/DeviceRGB {} cs
[0 0 0] sc
[0 0 0] sc
[0 0 0] SC
1 w
2 J
0 j
[] 0 d
Q
q
/DeviceRGB {} cs
[0 0 0] sc
[0 0 0] sc
[0 0 0] SC
1 w
2 J
0 j
[] 0 d
Q
q
[1 0 0 1 0.5 0.5] cm
/DeviceRGB {} cs
[0 0 0] sc
[0 0 0] sc
[0 0 0] SC
1 w
2 J
0 j
[] 0 d
Q
q
/DeviceRGB {} cs
[0 0 0] sc
[0 0 0] sc
95.5 100.5 m
95.5 103.261423 93.261424 105.5 90.5 105.5 c
87.738576 105.5 85.5 103.261423 85.5 100.5 c
85.5 97.738576 87.738576 95.5 90.5 95.5 c
93.261424 95.5 95.5 97.738576 95.5 100.5 c
h
f
Q
q
[1 0 0 1 0.5 0.5] cm
[0 0 0] SC
1 w
0 J
0 j
[] 0 d
95 100 m
95 102.761423 92.761424 105 90 105 c
87.238576 105 85 102.761423 85 100 c
85 97.238576 87.238576 95 90 95 c
92.761424 95 95 97.238576 95 100 c
h
S
/DeviceRGB {} cs
[0 0 0] sc
[0 0 0] sc
[0 0 0] SC
1 w
2 J
0 j
[] 0 d
Q
q
/DeviceRGB {} cs
[0 0 0] sc
[0 0 0] sc
[0 0 0] SC
1 w
2 J
0 j
[] 0 d
Q
q
[1 0 0 1 0.5 0.5] cm
/DeviceRGB {} cs
[0 0 0] sc
[0 0 0] sc
[0 0 0] SC
1 w
2 J
0 j
[] 0 d
[0 0 0] SC
1 w
0 J
0 j
[] 0 d
30 75 m
30 90 l
30 96.666672 33.333336 100 40 100 c
53.630001 100 l
S
/DeviceRGB {} cs
[0 0 0] sc
[0 0 0] sc
[0 0 0] SC
1 w
2 J
0 j
[] 0 d
Q
q
/DeviceRGB {} cs
[0 0 0] sc
[0 0 0] sc
59.380001 100.5 m
52.380001 104 l
54.130001 100.5 l
52.380001 97 l
59.380001 100.5 l
h
f
Q
q
[1 0 0 1 0.5 0.5] cm
[0 0 0] SC
1 w
0 J
0 j
[] 0 d
58.880001 100 m
51.880001 103.5 l
53.630001 100 l
51.880001 96.5 l
58.880001 100 l
h
S
/DeviceRGB {} cs
[0 0 0] sc
[0 0 0] sc
[0 0 0] SC
1 w
2 J
0 j
[] 0 d
Q
q
/DeviceRGB {} cs
[0 0 0] sc
[0 0 0] sc
[0 0 0] SC
1 w
2 J
0 j
[] 0 d
Q
q
[1 0 0 1 0.5 0.5] cm
/DeviceRGB {} cs
[0 0 0] sc
[0 0 0] sc
[0 0 0] SC
1 w
2 J
0 j
[] 0 d
Q
q
/DeviceRGB {} cs
[0 0 0] sc
[1 1 1] sc
q
[1 0 0 1 0.5 0.5] cm
300 90 40 20 re
f
Q
Q
q
[1 0 0 1 0.5 0.5] cm
[0 0 0] SC
1 w
0 J
0 j
[] 0 d
300 90 40 20 re
S
/DeviceRGB {} cs
[0 0 0] sc
[0 0 0] sc
[0 0 0] SC
1 w
2 J
0 j
[] 0 d
Q
q
/DeviceRGB {} cs
[0 0 0] sc
[0 0 0] sc
[0 0 0] SC
1 w
2 J
0 j
[] 0 d
Q
q
[1 0 0 1 0.5 0.5] cm
/DeviceRGB {} cs
[0 0 0] sc
[0 0 0] sc
[0 0 0] SC
1 w
2 J
0 j
[] 0 d
Q
q
/DeviceRGB {} cs
[0 0 0] sc
[1 1 1] sc
q
[1 0 0 1 0.5 0.5] cm
320 90 20 20 re
f
Q
Q
q
[1 0 0 1 0.5 0.5] cm
[0 0 0] SC
1 w
0 J
0 j
[] 0 d
320 90 20 20 re
S
/DeviceRGB {} cs
[0 0 0] sc
[0 0 0] sc
[0 0 0] SC
1 w
2 J
0 j
[] 0 d
Q
q
/DeviceRGB {} cs
[0 0 0] sc
[0 0 0] sc
[0 0 0] SC
1 w
2 J
0 j
[] 0 d
Q
q
[1 0 0 1 0.5 0.5] cm
/DeviceRGB {} cs
[0 0 0] sc
[0 0 0] sc
[0 0 0] SC
1 w
2 J
0 j
[] 0 d
Q
q
/DeviceRGB {} cs
[0 0 0] sc
[0 0 0] sc
[0 0 0] SC
1 w
2 J
0 j
[] 0 d
Q
q
[1 0 0 1 306 94] cm
/DeviceRGB {} cs
[0 0 0] sc
[0 0 0] sc
[0 0 0] SC
1 w
2 J
0 j
[] 0 d
[0 0 0] SC
0 w
2 J
2 j
[] 0 d
q
/DeviceRGB {} cs
[0 0 0] sc
[0 0 0] sc
Q
Q
q
/DeviceRGB {} cs
[0 0 0] sc
[0 0 0] sc
313.27539 95.75 m
313.27539 96.669922 l
313.005859 96.931641 312.64746 97.386719 312.200195 98.035156 c
311.752929 98.683594 311.357421 99.382812 311.013671 100.132812 c
310.673828 100.863281 310.416015 101.529296 310.240234 102.130859 c
310.126953 102.517578 309.980468 103.140625 309.800781 104 c
308.634765 104 l
308.90039 102.398437 309.486328 100.804687 310.392578 99.21875 c
310.927734 98.289063 311.490234 97.486328 312.080078 96.810547 c
307.439453 96.810547 l
307.439453 95.75 l
313.27539 95.75 l
h
f
Q
q
[1 0 0 1 306 94] cm
/DeviceRGB {} cs
[0 0 0] sc
[0 0 0] sc
[0 0 0] SC
0 w
2 J
2 j
[] 0 d
q
Q
[0 0 0] SC
1 w
2 J
0 j
[] 0 d
Q
q
/DeviceRGB {} cs
[0 0 0] sc
[0 0 0] sc
[0 0 0] SC
1 w
2 J
0 j
[] 0 d
Q
q
[1 0 0 1 0.5 0.5] cm
/DeviceRGB {} cs
[0 0 0] sc
[0 0 0] sc
[0 0 0] SC
1 w
2 J
0 j
[] 0 d
[0 0 0] SC
1 w
0 J
0 j
[] 0 d
255 100 m
293.630004 100 l
S
/DeviceRGB {} cs
[0 0 0] sc
[0 0 0] sc
[0 0 0] SC
1 w
2 J
0 j
[] 0 d
Q
q
/DeviceRGB {} cs
[0 0 0] sc
[0 0 0] sc
299.380004 100.5 m
292.380004 104 l
294.130004 100.5 l
292.380004 97 l
299.380004 100.5 l
h
f
Q
q
[1 0 0 1 0.5 0.5] cm
[0 0 0] SC
1 w
0 J
0 j
[] 0 d
298.880004 100 m
291.880004 103.5 l
293.630004 100 l
291.880004 96.5 l
298.880004 100 l
h
S
/DeviceRGB {} cs
[0 0 0] sc
[0 0 0] sc
[0 0 0] SC
1 w
2 J
0 j
[] 0 d
Q
q
/DeviceRGB {} cs
[0 0 0] sc
[0 0 0] sc
[0 0 0] SC
1 w
2 J
0 j
[] 0 d
Q
q
[1 0 0 1 0.5 0.5] cm
/DeviceRGB {} cs
[0 0 0] sc
[0 0 0] sc
[0 0 0] SC
1 w
2 J
0 j
[] 0 d
Q
q
/DeviceRGB {} cs
[0 0 0] sc
[0 0 0] sc
255.5 100.5 m
255.5 103.261423 253.261423 105.5 250.5 105.5 c
247.738576 105.5 245.5 103.261423 245.5 100.5 c
245.5 97.738576 247.738576 95.5 250.5 95.5 c
253.261423 95.5 255.5 97.738576 255.5 100.5 c
h
f
Q
q
[1 0 0 1 0.5 0.5] cm
[0 0 0] SC
1 w
0 J
0 j
[] 0 d
255 100 m
255 102.761423 252.761423 105 250 105 c
247.238576 105 245 102.761423 245 100 c
245 97.238576 247.238576 95 250 95 c
252.761423 95 255 97.238576 255 100 c
h
S
/DeviceRGB {} cs
[0 0 0] sc
[0 0 0] sc
[0 0 0] SC
1 w
2 J
0 j
[] 0 d
Q
q
/DeviceRGB {} cs
[0 0 0] sc
[0 0 0] sc
[0 0 0] SC
1 w
2 J
0 j
[] 0 d
Q
q
[1 0 0 1 0.5 0.5] cm
/DeviceRGB {} cs
[0 0 0] sc
[0 0 0] sc
[0 0 0] SC
1 w
2 J
0 j
[] 0 d
Q
q
/DeviceRGB {} cs
[0 0 0] sc
[1 1 1] sc
q
[1 0 0 1 0.5 0.5] cm
380 90 40 20 re
f
Q
Q
q
[1 0 0 1 0.5 0.5] cm
[0 0 0] SC
1 w
0 J
0 j
[] 0 d
380 90 40 20 re
S
/DeviceRGB {} cs
[0 0 0] sc
[0 0 0] sc
[0 0 0] SC
1 w
2 J
0 j
[] 0 d
Q
q
/DeviceRGB {} cs
[0 0 0] sc
[0 0 0] sc
[0 0 0] SC
1 w
2 J
0 j
[] 0 d
Q
q
[1 0 0 1 0.5 0.5] cm
/DeviceRGB {} cs
[0 0 0] sc
[0 0 0] sc
[0 0 0] SC
1 w
2 J
0 j
[] 0 d
Q
q
/DeviceRGB {} cs
[0 0 0] sc
[1 1 1] sc
q
[1 0 0 1 0.5 0.5] cm
400 90 20 20 re
f
Q
Q
q
[1 0 0 1 0.5 0.5] cm
[0 0 0] SC
1 w
0 J
0 j
[] 0 d
400 90 20 20 re
S
/DeviceRGB {} cs
[0 0 0] sc
[0 0 0] sc
[0 0 0] SC
1 w
2 J
0 j
[] 0 d
Q
q
/DeviceRGB {} cs
[0 0 0] sc
[0 0 0] sc
[0 0 0] SC
1 w
2 J
0 j
[] 0 d
Q
q
[1 0 0 1 0.5 0.5] cm
/DeviceRGB {} cs
[0 0 0] sc
[0 0 0] sc
[0 0 0] SC
1 w
2 J
0 j
[] 0 d
Q
q
/DeviceRGB {} cs
[0 0 0] sc
[0 0 0] sc
[0 0 0] SC
1 w
2 J
0 j
[] 0 d
Q
q
[1 0 0 1 386 94] cm
/DeviceRGB {} cs
[0 0 0] sc
[0 0 0] sc
[0 0 0] SC
1 w
2 J
0 j
[] 0 d
[0 0 0] SC
0 w
2 J
2 j
[] 0 d
q
/DeviceRGB {} cs
[0 0 0] sc
[0 0 0] sc
Q
Q
q
/DeviceRGB {} cs
[0 0 0] sc
[0 0 0] sc
388.148437 98.058594 m
388.148437 97.25 l
388.910156 97.175781 389.441406 97.051758 389.742187 96.87793 c
390.042968 96.704102 390.267578 96.292969 390.416015 95.644531 c
391.248046 95.644531 l
391.248046 104 l
390.123046 104 l
390.123046 98.058594 l
388.148437 98.058594 l
h
f
Q
q
[1 0 0 1 386 94] cm
/DeviceRGB {} cs
[0 0 0] sc
[0 0 0] sc
[0 0 0] SC
0 w
2 J
2 j
[] 0 d
q
Q
[0 0 0] SC
1 w
2 J
0 j
[] 0 d
Q
q
/DeviceRGB {} cs
[0 0 0] sc
[0 0 0] sc
[0 0 0] SC
1 w
2 J
0 j
[] 0 d
Q
q
[1 0 0 1 0.5 0.5] cm
/DeviceRGB {} cs
[0 0 0] sc
[0 0 0] sc
[0 0 0] SC
1 w
2 J
0 j
[] 0 d
Q
q
/DeviceRGB {} cs
[0 0 0] sc
[0 0 0] sc
415.5 100.5 m
415.5 103.261423 413.261423 105.5 410.5 105.5 c
407.738576 105.5 405.5 103.261423 405.5 100.5 c
405.5 97.738576 407.738576 95.5 410.5 95.5 c
413.261423 95.5 415.5 97.738576 415.5 100.5 c
h
f
Q
q
[1 0 0 1 0.5 0.5] cm
[0 0 0] SC
1 w
0 J
0 j
[] 0 d
415 100 m
415 102.761423 412.761423 105 410 105 c
407.238576 105 405 102.761423 405 100 c
405 97.238576 407.238576 95 410 95 c
412.761423 95 415 97.238576 415 100 c
h
S
/DeviceRGB {} cs
[0 0 0] sc
[0 0 0] sc
[0 0 0] SC
1 w
2 J
0 j
[] 0 d
Q
q
/DeviceRGB {} cs
[0 0 0] sc
[0 0 0] sc
[0 0 0] SC
1 w
2 J
0 j
[] 0 d
Q
q
[1 0 0 1 0.5 0.5] cm
/DeviceRGB {} cs
[0 0 0] sc
[0 0 0] sc
[0 0 0] SC
1 w
2 J
0 j
[] 0 d
[0 0 0] SC
1 w
0 J
0 j
[] 0 d
335 100 m
373.630004 100 l
S
/DeviceRGB {} cs
[0 0 0] sc
[0 0 0] sc
[0 0 0] SC
1 w
2 J
0 j
[] 0 d
Q
q
/DeviceRGB {} cs
[0 0 0] sc
[0 0 0] sc
379.380004 100.5 m
372.380004 104 l
374.130004 100.5 l
372.380004 97 l
379.380004 100.5 l
h
f
Q
q
[1 0 0 1 0.5 0.5] cm
[0 0 0] SC
1 w
0 J
0 j
[] 0 d
378.880004 100 m
371.880004 103.5 l
373.630004 100 l
371.880004 96.5 l
378.880004 100 l
h
S
/DeviceRGB {} cs
[0 0 0] sc
[0 0 0] sc
[0 0 0] SC
1 w
2 J
0 j
[] 0 d
Q
q
/DeviceRGB {} cs
[0 0 0] sc
[0 0 0] sc
[0 0 0] SC
1 w
2 J
0 j
[] 0 d
Q
q
[1 0 0 1 0.5 0.5] cm
/DeviceRGB {} cs
[0 0 0] sc
[0 0 0] sc
[0 0 0] SC
1 w
2 J
0 j
[] 0 d
Q
q
/DeviceRGB {} cs
[0 0 0] sc
[0 0 0] sc
335.5 100.5 m
335.5 103.261423 333.261423 105.5 330.5 105.5 c
327.738576 105.5 325.5 103.261423 325.5 100.5 c
325.5 97.738576 327.738576 95.5 330.5 95.5 c
333.261423 95.5 335.5 97.738576 335.5 100.5 c
h
f
Q
q
[1 0 0 1 0.5 0.5] cm
[0 0 0] SC
1 w
0 J
0 j
[] 0 d
335 100 m
335 102.761423 332.761423 105 330 105 c
327.238576 105 325 102.761423 325 100 c
325 97.238576 327.238576 95 330 95 c
332.761423 95 335 97.238576 335 100 c
h
S
/DeviceRGB {} cs
[0 0 0] sc
[0 0 0] sc
[0 0 0] SC
1 w
2 J
0 j
[] 0 d
Q
q
/DeviceRGB {} cs
[0 0 0] sc
[0 0 0] sc
[0 0 0] SC
1 w
2 J
0 j
[] 0 d
Q
q
[1 0 0 1 0.5 0.5] cm
/DeviceRGB {} cs
[0 0 0] sc
[0 0 0] sc
[0 0 0] SC
1 w
2 J
0 j
[] 0 d
Q
q
/DeviceRGB {} cs
[0 0 0] sc
[1 1 1] sc
q
[1 0 0 1 0.5 0.5] cm
20 30 20 20 re
f
Q
Q
q
[1 0 0 1 0.5 0.5] cm
[0 0 0] SC
1 w
0 J
0 j
[] 0 d
20 30 20 20 re
S
/DeviceRGB {} cs
[0 0 0] sc
[0 0 0] sc
[0 0 0] SC
1 w
2 J
0 j
[] 0 d
Q
q
/DeviceRGB {} cs
[0 0 0] sc
[0 0 0] sc
[0 0 0] SC
1 w
2 J
0 j
[] 0 d
Q
q
[1 0 0 1 0.5 0.5] cm
/DeviceRGB {} cs
[0 0 0] sc
[0 0 0] sc
[0 0 0] SC
1 w
2 J
0 j
[] 0 d
Q
q
/DeviceRGB {} cs
[0 0 0] sc
[0 0 0] sc
35.5 40.5 m
35.5 43.261424 33.261424 45.5 30.5 45.5 c
27.738576 45.5 25.5 43.261424 25.5 40.5 c
25.5 37.738576 27.738576 35.5 30.5 35.5 c
33.261424 35.5 35.5 37.738576 35.5 40.5 c
h
f
Q
q
[1 0 0 1 0.5 0.5] cm
[0 0 0] SC
1 w
0 J
0 j
[] 0 d
35 40 m
35 42.761424 32.761424 45 30 45 c
27.238576 45 25 42.761424 25 40 c
25 37.238576 27.238576 35 30 35 c
32.761424 35 35 37.238576 35 40 c
h
S
/DeviceRGB {} cs
[0 0 0] sc
[0 0 0] sc
[0 0 0] SC
1 w
2 J
0 j
[] 0 d
Q
q
/DeviceRGB {} cs
[0 0 0] sc
[0 0 0] sc
[0 0 0] SC
1 w
2 J
0 j
[] 0 d
Q
q
[1 0 0 1 0.5 0.5] cm
/DeviceRGB {} cs
[0 0 0] sc
[0 0 0] sc
[0 0 0] SC
1 w
2 J
0 j
[] 0 d
Q
q
/DeviceRGB {} cs
[0 0 0] sc
[1 1 1] sc
q
[1 0 0 1 0.5 0.5] cm
20 0 20 20 re
f
Q
Q
q
[1 0 0 1 0.5 0.5] cm
[0 0 0] SC
1 w
0 J
0 j
[] 0 d
20 0 20 20 re
S
/DeviceRGB {} cs
[0 0 0] sc
[0 0 0] sc
[0 0 0] SC
1 w
2 J
0 j
[] 0 d
Q
q
/DeviceRGB {} cs
[0 0 0] sc
[0 0 0] sc
[0 0 0] SC
1 w
2 J
0 j
[] 0 d
Q
q
[1 0 0 1 0.5 0.5] cm
/DeviceRGB {} cs
[0 0 0] sc
[0 0 0] sc
[0 0 0] SC
1 w
2 J
0 j
[] 0 d
[0 0 0] SC
1 w
0 J
0 j
[] 0 d
30 40 m
130.160003 58.209999 l
136.720001 59.403332 141.053344 63.16333 143.160003 69.489998 c
147.990005 83.959999 l
S
/DeviceRGB {} cs
[0 0 0] sc
[0 0 0] sc
[0 0 0] SC
1 w
2 J
0 j
[] 0 d
Q
q
/DeviceRGB {} cs
[0 0 0] sc
[0 0 0] sc
150.149993 89.440002 m
144.61 83.910004 l
148.490005 84.459999 l
151.25 81.690002 l
150.149993 89.440002 l
h
f
Q
q
[1 0 0 1 0.5 0.5] cm
[0 0 0] SC
1 w
0 J
0 j
[] 0 d
149.649993 88.940002 m
144.11 83.410004 l
147.990005 83.959999 l
150.75 81.190002 l
149.649993 88.940002 l
h
S
/DeviceRGB {} cs
[0 0 0] sc
[0 0 0] sc
[0 0 0] SC
1 w
2 J
0 j
[] 0 d
Q
q
/DeviceRGB {} cs
[0 0 0] sc
[0 0 0] sc
[0 0 0] SC
1 w
2 J
0 j
[] 0 d
Q
q
[1 0 0 1 0.5 0.5] cm
/DeviceRGB {} cs
[0 0 0] sc
[0 0 0] sc
[0 0 0] SC
1 w
2 J
0 j
[] 0 d
[0 0 0] SC
1 w
0 J
0 j
[] 0 d
34.939999 10.78 m
210.119995 38.439999 l
216.706665 39.480003 220.65335 43.27 221.960006 49.810001 c
228.75 83.760002 l
S
/DeviceRGB {} cs
[0 0 0] sc
[0 0 0] sc
[0 0 0] SC
1 w
2 J
0 j
[] 0 d
Q
q
/DeviceRGB {} cs
[0 0 0] sc
[0 0 0] sc
230.279998 89.400002 m
225.479995 83.230003 l
229.25 84.260002 l
232.339996 81.849998 l
230.279998 89.400002 l
h
f
Q
q
[1 0 0 1 0.5 0.5] cm
[0 0 0] SC
1 w
0 J
0 j
[] 0 d
229.779998 88.900002 m
224.979995 82.730003 l
228.75 83.760002 l
231.839996 81.349998 l
229.779998 88.900002 l
h
S
/DeviceRGB {} cs
[0 0 0] sc
[0 0 0] sc
[0 0 0] SC
1 w
2 J
0 j
[] 0 d
Q
q
/DeviceRGB {} cs
[0 0 0] sc
[0 0 0] sc
[0 0 0] SC
1 w
2 J
0 j
[] 0 d
Q
q
[1 0 0 1 0.5 0.5] cm
/DeviceRGB {} cs
[0 0 0] sc
[0 0 0] sc
[0 0 0] SC
1 w
2 J
0 j
[] 0 d
Q
q
/DeviceRGB {} cs
[0 0 0] sc
[0 0 0] sc
35.5 10.5 m
35.5 13.261424 33.261424 15.5 30.5 15.5 c
27.738576 15.5 25.5 13.261424 25.5 10.5 c
25.5 7.738576 27.738576 5.5 30.5 5.5 c
33.261424 5.5 35.5 7.738576 35.5 10.5 c
h
f
Q
q
[1 0 0 1 0.5 0.5] cm
[0 0 0] SC
1 w
0 J
0 j
[] 0 d
35 10 m
35 12.761424 32.761424 15 30 15 c
27.238576 15 25 12.761424 25 10 c
25 7.238576 27.238576 5 30 5 c
32.761424 5 35 7.238576 35 10 c
h
S
/DeviceRGB {} cs
[0 0 0] sc
[0 0 0] sc
[0 0 0] SC
1 w
2 J
0 j
[] 0 d
Q
q
/DeviceRGB {} cs
[0 0 0] sc
[0 0 0] sc
[0 0 0] SC
1 w
2 J
0 j
[] 0 d
Q
Q
q
q
/DeviceRGB {} cs
[0 0 0] sc
[0 0 0] sc
[0 0 0] SC
1 w
2 J
0 j
[] 0 d
Q
Q
q
0 0 422 232 re
W*
q
/DeviceRGB {} cs
[0 0 0] sc
[0 0 0] sc
[0 0 0] SC
1 w
2 J
0 j
[] 0 d
Q
q
/DeviceRGB {} cs
[0 0 0] sc
[0 0 0] sc
[0 0 0] SC
1 w
2 J
0 j
[] 0 d
Q
Q
q
0 0 422 232 re
W*
0 0 422 232 re
W*
q
/DeviceRGB {} cs
[0 0 0] sc
[0 0 0] sc
[0 0 0] SC
1 w
2 J
0 j
[] 0 d
Q
Q
q
q
/DeviceRGB {} cs
[0 0 0] sc
[0 0 0] sc
[0 0 0] SC
1 w
2 J
0 j
[] 0 d
Q
Q
q
0 0 422 232 re
W*
q
/DeviceRGB {} cs
[0 0 0] sc
[0 0 0] sc
[0 0 0] SC
1 w
2 J
0 j
[] 0 d
Q
q
/DeviceRGB {} cs
[0 0 0] sc
[0 0 0] sc
[0 0 0] SC
1 w
2 J
0 j
[] 0 d
Q
Q
q
q
/DeviceRGB {} cs
[0 0 0] sc
[0 0 0] sc
[0 0 0] SC
1 w
2 J
0 j
[] 0 d
Q
Q
Q
showpage
%%PageTrailer
pdfEndPage
%%Trailer
end
%%DocumentSuppliedResources:
%%EOF
